#FIG 3.2
Landscape
Center
Metric
A4      
140.00
Single
-2
1200 2
0 32 #808080
2 1 0 1 0 7 51 0 -1 0.000 0 0 -1 1 0 2
	0 0 1.00 60.00 120.00
	 1440 1035 4410 630
2 1 0 1 0 7 51 0 -1 0.000 0 0 -1 1 0 2
	0 0 1.00 60.00 120.00
	 1440 1260 3285 1260
2 1 0 1 0 7 51 0 -1 0.000 0 0 -1 1 0 2
	0 0 1.00 60.00 120.00
	 1440 1485 2160 1980
2 1 0 1 0 7 51 0 -1 0.000 0 0 -1 1 0 2
	0 0 1.00 60.00 120.00
	 3015 1980 3285 1305
2 1 0 1 0 7 51 0 -1 0.000 0 0 -1 1 0 2
	0 0 1.00 60.00 120.00
	 4140 1305 4410 855
2 1 0 1 0 7 51 0 -1 0.000 0 0 -1 1 0 6
	0 0 1.00 60.00 120.00
	 6390 1530 6615 1530 6615 270 360 270 360 1035 585 1035
2 1 0 1 0 7 51 0 -1 0.000 0 0 -1 1 0 2
	0 0 1.00 60.00 120.00
	 1440 1710 2160 3330
2 1 0 1 0 7 51 0 -1 0.000 0 0 -1 1 0 2
	0 0 1.00 60.00 120.00
	 3015 3330 5535 1575
2 1 0 1 0 7 51 0 -1 0.000 0 0 -1 1 0 2
	0 0 1.00 60.00 120.00
	 3015 2205 5535 1530
2 1 0 1 32 7 53 0 -1 0.000 0 0 -1 1 0 2
	0 0 1.00 60.00 120.00
	 3015 2430 4185 2835
2 1 0 1 32 7 51 0 -1 0.000 0 0 -1 1 0 2
	0 0 1.00 60.00 120.00
	 3008 3540 4185 2880
2 1 0 1 32 7 51 0 -1 0.000 0 0 -1 1 0 2
	0 0 1.00 60.00 120.00
	 5040 2880 6885 2880
2 1 0 1 32 7 51 0 -1 0.000 0 0 -1 1 0 2
	0 0 1.00 60.00 120.00
	 6390 1755 6885 2835
2 1 0 1 32 7 51 0 -1 0.000 0 0 -1 1 0 2
	0 0 1.00 60.00 120.00
	 3015 3780 6885 2925
2 1 0 1 32 7 51 0 -1 0.000 0 0 -1 1 0 2
	0 0 1.00 60.00 120.00
	 3018 4016 6885 3555
2 2 0 0 7 7 52 0 20 0.000 0 0 -1 0 0 5
	 3825 2700 3915 2700 3915 2790 3825 2790 3825 2700
2 2 0 0 7 7 52 0 20 0.000 0 0 -1 0 0 5
	 6615 2835 6705 2835 6705 2925 6615 2925 6615 2835
2 2 0 0 7 7 52 0 20 0.000 0 0 -1 0 0 5
	 6660 2925 6750 2925 6750 3015 6660 3015 6660 2925
2 1 0 1 32 7 53 0 -1 0.000 0 0 -1 1 0 2
	0 0 1.00 60.00 120.00
	 6390 1980 6885 3510
2 1 0 1 4 7 50 0 -1 0.000 0 0 -1 0 0 2
	 1395 945 1395 1125
2 1 0 1 4 7 50 0 -1 0.000 0 0 -1 0 0 2
	 1395 1170 1395 1350
2 1 0 1 4 7 50 0 -1 0.000 0 0 -1 0 0 2
	 1395 1395 1395 1575
2 1 0 1 4 7 50 0 -1 0.000 0 0 -1 0 0 2
	 1395 1620 1395 1800
2 1 0 1 4 7 50 0 -1 0.000 0 0 -1 0 0 2
	 1350 1035 1395 1035
2 1 0 1 4 7 50 0 -1 0.000 0 0 -1 0 0 2
	 1350 1260 1395 1260
2 1 0 1 4 7 50 0 -1 0.000 0 0 -1 0 0 2
	 1350 1485 1395 1485
2 1 0 1 4 7 50 0 -1 0.000 0 0 -1 0 0 2
	 1350 1710 1395 1710
2 1 0 1 4 7 50 0 -1 0.000 0 0 -1 0 0 2
	 675 1035 630 1035
2 1 0 1 4 7 50 0 -1 0.000 0 0 -1 0 0 2
	 630 945 630 1125
2 1 0 1 4 7 50 0 -1 0.000 0 0 -1 0 0 2
	 1395 1845 1395 2025
2 1 0 1 4 7 50 0 -1 0.000 0 0 -1 0 0 2
	 1350 1935 1395 1935
2 1 0 1 4 7 50 0 -1 0.000 0 0 -1 0 0 2
	 2970 1890 2970 2070
2 1 0 1 4 7 50 0 -1 0.000 0 0 -1 0 0 2
	 2970 2115 2970 2295
2 1 0 1 4 7 50 0 -1 0.000 0 0 -1 0 0 2
	 2970 2340 2970 2520
2 1 0 1 4 7 50 0 -1 0.000 0 0 -1 0 0 2
	 2925 1980 2970 1980
2 1 0 1 4 7 50 0 -1 0.000 0 0 -1 0 0 2
	 2925 2205 2970 2205
2 1 0 1 4 7 50 0 -1 0.000 0 0 -1 0 0 2
	 2925 2430 2970 2430
2 1 0 1 4 7 50 0 -1 0.000 0 0 -1 0 0 2
	 2250 1980 2205 1980
2 1 0 1 4 7 50 0 -1 0.000 0 0 -1 0 0 2
	 2205 1890 2205 2070
2 1 0 1 4 7 50 0 -1 0.000 0 0 -1 0 0 2
	 4095 1215 4095 1395
2 1 0 1 4 7 50 0 -1 0.000 0 0 -1 0 0 2
	 4050 1305 4095 1305
2 1 0 1 4 7 50 0 -1 0.000 0 0 -1 0 0 2
	 3375 1305 3330 1305
2 1 0 1 4 7 50 0 -1 0.000 0 0 -1 0 0 2
	 3330 1215 3330 1395
2 1 0 1 4 7 50 0 -1 0.000 0 0 -1 0 0 2
	 4500 630 4455 630
2 1 0 1 4 7 50 0 -1 0.000 0 0 -1 0 0 2
	 5220 540 5220 720
2 1 0 1 4 7 50 0 -1 0.000 0 0 -1 0 0 2
	 5175 630 5220 630
2 1 0 1 4 7 50 0 -1 0.000 0 0 -1 0 0 2
	 4455 765 4455 945
2 1 0 1 4 7 50 0 -1 0.000 0 0 -1 0 0 2
	 4500 855 4455 855
2 1 0 1 4 7 50 0 -1 0.000 0 0 -1 0 0 2
	 4455 540 4455 720
2 2 0 1 4 7 50 0 -1 0.000 0 0 -1 0 0 5
	 4500 495 5175 495 5175 945 4500 945 4500 495
2 1 0 1 4 7 50 0 -1 0.000 0 0 -1 0 0 2
	 6345 1440 6345 1620
2 1 0 1 4 7 50 0 -1 0.000 0 0 -1 0 0 2
	 6345 1665 6345 1845
2 1 0 1 4 7 50 0 -1 0.000 0 0 -1 0 0 2
	 6345 1890 6345 2070
2 1 0 1 4 7 50 0 -1 0.000 0 0 -1 0 0 2
	 6300 1530 6345 1530
2 1 0 1 4 7 50 0 -1 0.000 0 0 -1 0 0 2
	 6300 1755 6345 1755
2 1 0 1 4 7 50 0 -1 0.000 0 0 -1 0 0 2
	 6300 1980 6345 1980
2 1 0 1 4 7 50 0 -1 0.000 0 0 -1 0 0 2
	 5625 1530 5580 1530
2 1 0 1 4 7 50 0 -1 0.000 0 0 -1 0 0 2
	 5580 1440 5580 1620
2 2 0 1 4 7 50 0 -1 0.000 0 0 -1 0 0 5
	 5625 1395 6300 1395 6300 2070 5625 2070 5625 1395
2 1 0 1 32 7 50 0 -1 0.000 0 0 -1 0 0 2
	 4275 2880 4230 2880
2 1 0 1 32 7 50 0 -1 0.000 0 0 -1 0 0 2
	 4230 2790 4230 2970
2 2 0 1 32 7 50 0 -1 0.000 0 0 -1 0 0 5
	 4275 2745 4950 2745 4950 3195 4275 3195 4275 2745
2 1 0 1 32 7 50 0 -1 0.000 0 0 -1 0 0 2
	 4995 2790 4995 2970
2 1 0 1 32 7 50 0 -1 0.000 0 0 -1 0 0 2
	 4995 2880 4950 2880
2 1 0 1 0 7 51 0 -1 0.000 0 0 -1 1 0 2
	0 0 1.00 60.00 120.00
	 3015 4230 3960 4230
2 1 0 1 0 7 51 0 -1 0.000 0 0 -1 1 0 2
	0 0 1.00 60.00 120.00
	 4815 4230 5535 4230
2 1 0 1 0 7 50 0 -1 0.000 0 0 -1 0 0 2
	 4050 4230 4005 4230
2 1 0 1 0 7 50 0 -1 0.000 0 0 -1 0 0 2
	 4005 4140 4005 4320
2 2 0 1 0 7 50 0 -1 0.000 0 0 -1 0 0 5
	 4050 4095 4725 4095 4725 4545 4050 4545 4050 4095
2 1 0 1 0 7 50 0 -1 0.000 0 0 -1 0 0 2
	 4770 4140 4770 4320
2 1 0 1 0 7 50 0 -1 0.000 0 0 -1 0 0 2
	 4770 4230 4725 4230
2 1 0 1 0 7 50 0 -1 0.000 0 0 -1 0 0 2
	 2970 3240 2970 3420
2 1 0 1 0 7 50 0 -1 0.000 0 0 -1 0 0 2
	 2970 3465 2970 3645
2 1 0 1 0 7 50 0 -1 0.000 0 0 -1 0 0 2
	 2970 3690 2970 3870
2 1 0 1 0 7 50 0 -1 0.000 0 0 -1 0 0 2
	 2970 3915 2970 4095
2 1 0 1 0 7 50 0 -1 0.000 0 0 -1 0 0 2
	 2925 3330 2970 3330
2 1 0 1 0 7 50 0 -1 0.000 0 0 -1 0 0 2
	 2925 3555 2970 3555
2 1 0 1 0 7 50 0 -1 0.000 0 0 -1 0 0 2
	 2925 3780 2970 3780
2 1 0 1 0 7 50 0 -1 0.000 0 0 -1 0 0 2
	 2925 4005 2970 4005
2 1 0 1 0 7 50 0 -1 0.000 0 0 -1 0 0 2
	 2250 3330 2205 3330
2 1 0 1 0 7 50 0 -1 0.000 0 0 -1 0 0 2
	 2205 3240 2205 3420
2 1 0 1 0 7 50 0 -1 0.000 0 0 -1 0 0 2
	 2970 4140 2970 4320
2 1 0 1 0 7 50 0 -1 0.000 0 0 -1 0 0 2
	 2925 4230 2970 4230
2 2 0 1 0 7 50 0 -1 0.000 0 0 -1 0 0 5
	 2250 3195 2925 3195 2925 4320 2250 4320 2250 3195
2 1 0 1 0 7 50 0 -1 0.000 0 0 -1 0 0 2
	 5625 4230 5580 4230
2 1 0 1 0 7 50 0 -1 0.000 0 0 -1 0 0 2
	 5580 4140 5580 4320
2 2 0 1 0 7 50 0 -1 0.000 0 0 -1 0 0 5
	 5625 4095 6300 4095 6300 4545 5625 4545 5625 4095
2 1 0 1 32 7 50 0 -1 0.000 0 0 -1 0 0 2
	 6975 2880 6930 2880
2 1 0 1 32 7 50 0 -1 0.000 0 0 -1 0 0 2
	 6930 2790 6930 2970
2 2 0 1 32 7 50 0 -1 0.000 0 0 -1 0 0 5
	 6975 2745 7650 2745 7650 3195 6975 3195 6975 2745
2 1 0 1 32 7 50 0 -1 0.000 0 0 -1 0 0 2
	 6975 3555 6930 3555
2 1 0 1 32 7 50 0 -1 0.000 0 0 -1 0 0 2
	 6930 3465 6930 3645
2 2 0 1 32 7 50 0 -1 0.000 0 0 -1 0 0 5
	 6975 3420 7650 3420 7650 3870 6975 3870 6975 3420
2 2 0 1 4 7 50 0 -1 0.000 0 0 -1 0 0 5
	 3375 1170 4050 1170 4050 1620 3375 1620 3375 1170
2 2 0 1 4 7 50 0 -1 0.000 0 0 -1 0 0 5
	 2250 1845 2925 1845 2925 2745 2250 2745 2250 1845
2 2 0 1 4 7 50 0 -1 0.000 0 0 -1 0 0 5
	 675 900 1350 900 1350 2250 675 2250 675 900
2 1 0 1 4 7 50 0 -1 0.000 0 0 -1 0 0 2
	 1395 2070 1395 2250
2 1 0 1 4 7 50 0 -1 0.000 0 0 -1 0 0 2
	 1350 2160 1395 2160
2 1 0 1 4 7 50 0 -1 0.000 0 0 -1 0 0 2
	 2970 2565 2970 2745
2 1 0 1 4 7 50 0 -1 0.000 0 0 -1 0 0 2
	 2925 2655 2970 2655
2 1 0 1 4 7 50 0 -1 0.000 0 0 -1 0 0 2
	 4095 1440 4095 1620
2 1 0 1 4 7 50 0 -1 0.000 0 0 -1 0 0 2
	 4050 1530 4095 1530
2 1 0 1 4 7 50 0 -1 0.000 0 0 -1 0 0 2
	 5220 765 5220 945
2 1 0 1 4 7 50 0 -1 0.000 0 0 -1 0 0 2
	 5175 855 5220 855
2 1 0 1 0 7 51 0 -1 0.000 0 0 -1 1 0 2
	0 0 1.00 60.00 120.00
	 5265 630 5535 1485
4 0 4 50 0 0 8 0.0000 4 90 210 720 1035 Rmi\001
4 0 4 50 0 0 6 0.0000 4 90 450 1440 1125 stub-factory\001
4 0 4 50 0 0 6 0.0000 4 75 285 1440 1350 adapter\001
4 0 4 50 0 0 6 0.0000 4 75 480 1440 1575 rmi-protocol\001
4 0 4 50 0 0 6 0.0000 4 75 465 1440 1800 tcp-protocol\001
4 0 4 50 0 0 6 0.0000 4 90 585 1440 2025 context-factory\001
4 0 4 50 0 0 8 0.0000 4 90 330 720 1170 Binder\001
4 2 4 50 0 0 8 1.5708 4 105 810 630 1170 NamingContext\001
4 0 4 50 0 0 6 0.0000 4 75 285 3015 2070 adapter\001
4 0 4 50 0 0 8 0.0000 4 90 210 2295 1980 Rmi\001
4 0 4 50 0 0 8 0.0000 4 75 450 2295 2115 Protocol\001
4 0 4 50 0 0 6 0.0000 4 90 705 3015 2295 marshaller-factory\001
4 0 4 50 0 0 6 0.0000 4 60 360 3015 2520 scheduler\001
4 2 4 50 0 0 8 1.5708 4 75 450 2205 2115 Protocol\001
4 2 4 50 0 0 8 0.0000 4 105 810 3195 1395 NamingContext\001
4 0 4 50 0 0 6 0.0000 4 90 615 4140 1395 skeleton-factory\001
4 0 4 50 0 0 8 0.0000 4 90 210 3420 1305 Rmi\001
4 0 4 50 0 0 8 0.0000 4 105 405 3420 1455 Adapter\001
4 0 4 50 0 0 8 0.0000 4 105 390 4545 765 Factory\001
4 0 4 50 0 0 8 0.0000 4 90 450 4545 630 RmiStub\001
4 0 4 50 0 0 6 0.0000 4 90 705 5265 720 marshaller-factory\001
4 0 4 50 0 0 8 0.0000 4 90 210 5670 1530 Rmi\001
4 0 4 50 0 0 8 0.0000 4 75 555 5670 1665 Marshaller\001
4 0 4 50 0 0 8 0.0000 4 105 390 5670 1800 Factory\001
4 0 4 50 0 0 6 0.0000 4 60 285 6390 1620 domain\001
4 0 4 50 0 0 6 0.0000 4 90 585 6390 1845 context-factory\001
4 0 4 50 0 0 6 0.0000 4 90 525 6390 2070 chunk-factory\001
4 0 32 50 0 0 8 0.0000 4 75 570 4320 2880 JScheduler\001
4 0 32 50 0 0 6 0.0000 4 90 585 5040 2970 context-factory\001
4 0 0 50 0 0 6 0.0000 4 90 630 4815 4320 delegate-factory\001
4 0 0 50 0 0 8 0.0000 4 90 225 4095 4365 Mgr\001
4 0 0 50 0 0 8 0.0000 4 90 630 4095 4230 JConnection\001
4 2 0 50 0 0 8 1.5708 4 75 450 2205 3465 Protocol\001
4 0 0 50 0 0 8 0.0000 4 105 300 2295 3330 TcpIp\001
4 0 0 50 0 0 8 0.0000 4 75 450 2295 3465 Protocol\001
4 0 0 50 0 0 6 0.0000 4 90 720 3015 4320 connection-factory\001
4 0 0 50 0 0 6 0.0000 4 60 360 3015 3645 scheduler\001
4 0 0 50 0 0 6 0.0000 4 90 705 3015 3420 marshaller-factory\001
4 0 0 50 0 0 6 0.0000 4 90 585 3015 3870 context-factory\001
4 0 0 50 0 0 6 0.0000 4 90 525 3015 4095 chunk-factory\001
4 0 0 50 0 0 8 0.0000 4 75 240 5670 4230 IPv4\001
4 0 0 50 0 0 8 0.0000 4 90 585 5670 4365 Connection\001
4 0 0 50 0 0 8 0.0000 4 105 390 5670 4500 Factory\001
4 0 32 50 0 0 8 0.0000 4 75 480 7020 2880 JContext\001
4 0 32 50 0 0 8 0.0000 4 105 390 7020 3015 Factory\001
4 0 32 50 0 0 8 0.0000 4 75 375 7020 3555 JChunk\001
4 0 32 50 0 0 8 0.0000 4 105 390 7020 3690 Factory\001
4 0 4 50 0 0 6 0.0000 4 90 240 1440 2250 logger\001
4 0 4 50 0 0 6 0.0000 4 90 240 3015 2745 logger\001
4 0 4 50 0 0 6 0.0000 4 90 240 4140 1620 logger\001
4 0 4 50 0 0 6 0.0000 4 90 240 5265 945 logger\001
