#FIG 3.2
Landscape
Center
Metric
A4      
100.00
Single
-2
1200 2
6 3735 2205 4680 3150
2 1 0 1 0 7 50 -1 -1 0.000 0 0 -1 1 0 2
	0 0 1.00 60.00 120.00
	 3915 2340 4545 2340
2 1 0 1 0 7 50 -1 -1 0.000 0 0 -1 1 0 2
	0 0 1.00 60.00 120.00
	 3915 2340 3915 3015
4 0 0 50 -1 0 12 0.0000 4 75 90 4590 2295 x\001
4 0 0 50 -1 0 12 0.0000 4 120 90 3735 3105 y\001
-6
1 3 0 1 0 0 50 -1 20 0.000 1 0.0000 4680 3150 45 45 4680 3150 4725 3150
1 3 0 1 0 0 50 -1 20 0.000 1 0.0000 9720 7200 45 45 9720 7200 9765 7200
2 1 0 1 0 7 50 -1 -1 0.000 0 0 -1 1 1 2
	0 0 1.00 60.00 120.00
	0 0 1.00 60.00 120.00
	 7380 3600 7380 3150
2 1 0 1 0 7 50 -1 -1 0.000 0 0 -1 1 1 2
	0 0 1.00 60.00 120.00
	0 0 1.00 60.00 120.00
	 9000 5715 9450 5715
2 1 0 1 0 7 50 -1 -1 0.000 0 0 -1 1 0 2
	0 0 1.00 60.00 120.00
	 5220 7020 4950 7020
2 1 0 1 0 7 50 -1 -1 0.000 0 0 -1 0 1 2
	0 0 1.00 60.00 120.00
	 4680 7020 4140 7020
2 1 0 1 0 7 50 -1 -1 0.000 0 0 -1 0 0 2
	 4680 7020 4950 7020
2 1 0 1 0 7 50 -1 -1 0.000 0 0 -1 1 0 2
	0 0 1.00 60.00 120.00
	 9180 7020 9450 7020
2 1 0 1 0 7 50 -1 -1 0.000 0 0 -1 0 1 2
	0 0 1.00 60.00 120.00
	 9720 7020 10260 7020
2 1 0 1 0 7 50 -1 -1 0.000 0 0 -1 0 0 2
	 9450 7020 9720 7020
2 1 2 1 0 7 50 -1 -1 3.000 0 0 -1 0 0 2
	 3915 3690 5175 3690
2 1 2 1 0 7 50 -1 -1 3.000 0 0 -1 0 0 2
	 3915 4590 5175 4590
2 1 2 1 0 7 50 -1 -1 3.000 0 0 -1 0 0 2
	 3915 5490 5175 5490
2 1 0 1 0 7 50 -1 -1 0.000 0 0 -1 1 1 2
	0 0 1.00 60.00 120.00
	0 0 1.00 60.00 120.00
	 3960 3690 3960 4590
2 1 0 1 0 7 50 -1 -1 0.000 0 0 -1 1 1 2
	0 0 1.00 60.00 120.00
	0 0 1.00 60.00 120.00
	 3960 4590 3960 5490
2 1 2 1 0 7 50 -1 -1 3.000 0 0 -1 0 0 2
	 5535 3825 7560 3825
2 1 2 1 0 7 50 -1 -1 3.000 0 0 -1 0 0 2
	 5535 4455 7560 4455
2 1 0 1 0 7 50 -1 -1 0.000 0 0 -1 1 1 2
	0 0 1.00 60.00 120.00
	0 0 1.00 60.00 120.00
	 7380 3825 7380 4455
2 1 2 1 0 7 50 -1 -1 3.000 0 0 -1 0 0 2
	 5850 5175 5850 7920
2 1 2 1 0 7 50 -1 -1 3.000 0 0 -1 0 0 2
	 5670 5175 5670 7695
2 1 0 1 0 7 50 -1 -1 0.000 0 0 -1 0 1 2
	0 0 1.00 60.00 120.00
	 5850 5895 6705 5895
2 1 0 1 0 7 50 -1 -1 0.000 0 0 -1 1 0 2
	0 0 1.00 60.00 120.00
	 5445 5895 5670 5895
2 1 0 1 0 7 50 -1 -1 0.000 0 0 -1 0 0 2
	 5670 5895 5850 5895
2 1 0 1 0 7 50 -1 -1 0.000 0 0 -1 0 0 2
	 5400 6435 5670 6435
2 1 0 1 0 7 50 -1 -1 0.000 0 0 -1 1 0 2
	0 0 1.00 60.00 120.00
	 5175 6435 5400 6435
2 1 0 1 0 7 50 -1 -1 0.000 0 0 -1 0 1 2
	0 0 1.00 60.00 120.00
	 5670 6435 6210 6435
2 2 0 3 0 7 50 -1 -1 0.000 0 0 -1 0 0 5
	 4950 3150 9450 3150 9450 7200 4950 7200 4950 3150
2 2 0 3 0 7 50 -1 -1 0.000 0 0 -1 0 0 5
	 5400 3600 9000 3600 9000 6750 5400 6750 5400 3600
2 1 0 3 0 7 50 -1 -1 0.000 0 0 -1 0 0 2
	 4950 5040 4680 5040
2 1 0 3 0 7 50 -1 -1 0.000 0 0 -1 0 0 2
	 5670 3825 5670 4455
2 1 0 3 0 7 50 -1 -1 0.000 0 0 -1 0 0 2
	 5670 4140 5400 4140
2 1 0 3 0 7 50 -1 -1 0.000 0 0 -1 0 0 2
	 5670 5040 5400 5040
2 1 0 3 0 7 50 -1 -1 0.000 0 0 -1 0 0 2
	 5670 4725 5670 5355
2 1 0 3 0 7 50 -1 -1 0.000 0 0 -1 0 0 2
	 4950 4140 4680 4140
2 1 0 3 0 7 50 -1 -1 0.000 0 0 -1 0 0 2
	 4680 4725 4680 5355
2 1 0 3 0 7 50 -1 -1 0.000 0 0 -1 0 0 2
	 4680 3825 4680 4455
2 2 2 1 0 7 50 -1 -1 3.000 0 0 -1 0 0 5
	 4680 3150 9720 3150 9720 7200 4680 7200 4680 3150
2 1 2 1 0 7 50 -1 -1 3.000 0 0 -1 0 0 2
	 5400 6660 5400 7515
2 1 0 1 0 7 50 -1 -1 0.000 0 0 -1 1 1 2
	0 0 1.00 60.00 120.00
	0 0 1.00 60.00 120.00
	 4680 7425 5400 7425
2 1 0 1 0 7 50 -1 -1 0.000 0 0 -1 1 1 2
	0 0 1.00 60.00 120.00
	0 0 1.00 60.00 120.00
	 4680 7605 5670 7605
2 1 0 1 0 7 50 -1 -1 0.000 0 0 -1 1 1 2
	0 0 1.00 60.00 120.00
	0 0 1.00 60.00 120.00
	 4680 7785 5850 7785
2 1 2 1 0 7 50 -1 -1 3.000 0 0 -1 0 0 2
	 4680 7200 4680 7920
4 0 0 50 -1 0 12 0.0000 4 120 765 7470 3420 borderSize\001
4 0 0 50 -1 0 12 1.5708 4 120 765 9270 5625 borderSize\001
4 1 0 50 -1 0 12 0.0000 4 150 345 4680 2970 (0,0)\001
4 1 0 50 -1 0 12 0.0000 4 150 390 9720 7470 (w,h)\001
4 0 0 50 -1 0 12 0.0000 4 120 315 4185 6930 itfW\001
4 2 0 50 -1 0 12 0.0000 4 120 315 10215 6930 itfW\001
4 0 0 50 -1 0 30 0.0000 4 210 1095 5850 4275 server\001
4 0 0 50 -1 0 30 0.0000 4 315 1305 5850 5175 listener\001
4 0 0 50 -1 0 12 0.0000 4 120 285 7470 4185 itfH\001
4 0 0 50 -1 0 12 1.5708 4 120 360 3825 5265 divH\001
4 0 0 50 -1 0 12 1.5708 4 120 360 3825 4365 divH\001
4 2 0 50 -1 0 12 0.0000 4 120 615 6660 5805 INSETS\001
4 2 0 50 -1 0 12 0.0000 4 120 315 6165 6345 itfW\001
4 0 0 50 -1 0 12 0.0000 4 120 315 4275 7425 bw1\001
4 0 0 50 -1 0 12 0.0000 4 120 315 4275 7605 bw2\001
4 0 0 50 -1 0 12 0.0000 4 120 315 4275 7785 bw3\001
