#FIG 3.2
Landscape
Center
Metric
A4      
100.00
Single
-2
1200 2
2 1 0 1 0 7 50 -1 -1 0.000 0 0 -1 1 0 6
	0 0 1.00 60.00 120.00
	 6660 3330 6885 3330 6885 2700 540 2700 540 3105 720 3285
2 2 0 1 0 7 50 -1 -1 0.000 0 0 -1 0 0 5
	 900 3150 2025 3150 2025 4050 900 4050 900 3150
2 1 0 2 4 7 50 -1 -1 0.000 0 0 -1 0 0 2
	 810 3195 810 3465
2 1 0 2 4 7 50 -1 -1 0.000 0 0 -1 0 0 2
	 900 3330 810 3330
2 2 0 1 0 7 50 -1 -1 0.000 0 0 -1 0 0 5
	 5400 3150 6525 3150 6525 4050 5400 4050 5400 3150
2 1 0 2 4 7 50 -1 -1 0.000 0 0 -1 0 0 2
	 5310 3195 5310 3465
2 1 0 2 4 7 50 -1 -1 0.000 0 0 -1 0 0 2
	 5400 3330 5310 3330
2 1 0 2 4 7 50 -1 -1 0.000 0 0 -1 0 0 2
	 810 3600 810 3870
2 1 0 2 4 7 50 -1 -1 0.000 0 0 -1 0 0 2
	 900 3735 810 3735
2 1 0 2 4 7 50 -1 -1 0.000 0 0 -1 0 0 2
	 5310 3600 5310 3870
2 1 0 2 4 7 50 -1 -1 0.000 0 0 -1 0 0 2
	 5400 3735 5310 3735
2 1 0 1 0 7 50 -1 -1 0.000 0 0 -1 1 0 2
	0 0 1.00 60.00 120.00
	 2160 3735 5265 3735
2 1 0 1 0 7 50 -1 -1 0.000 0 0 -1 1 0 2
	0 0 1.00 60.00 120.00
	 2160 3330 5265 3330
2 1 0 1 12 7 50 -1 -1 0.000 0 0 -1 0 0 2
	 2115 3735 2025 3735
2 1 0 1 12 7 50 -1 -1 0.000 0 0 -1 0 0 2
	 2115 3600 2115 3870
2 1 0 1 12 7 50 -1 -1 0.000 0 0 -1 0 0 2
	 2115 3195 2115 3465
2 1 0 1 12 7 50 -1 -1 0.000 0 0 -1 0 0 2
	 2115 3330 2025 3330
2 1 0 1 12 7 50 -1 -1 0.000 0 0 -1 0 0 2
	 6615 3735 6525 3735
2 1 0 1 12 7 50 -1 -1 0.000 0 0 -1 0 0 2
	 6615 3600 6615 3870
2 1 0 1 12 7 50 -1 -1 0.000 0 0 -1 0 0 2
	 6615 3195 6615 3465
2 1 0 1 12 7 50 -1 -1 0.000 0 0 -1 0 0 2
	 6615 3330 6525 3330
2 1 0 1 0 7 50 -1 -1 0.000 0 0 -1 1 0 6
	0 0 1.00 60.00 120.00
	 6660 3735 6885 3735 6885 4365 540 4365 540 3960 720 3780
4 0 0 50 -1 2 12 0.0000 4 135 480 945 3375 model\001
4 2 0 50 -1 0 12 0.0000 4 120 255 585 3375 M1\001
4 0 0 50 -1 2 12 0.0000 4 135 480 5445 3375 model\001
4 0 0 50 -1 0 12 0.0000 4 120 735 945 3780 m2listener\001
4 0 0 50 -1 0 12 0.0000 4 120 735 5445 3780 m1listener\001
4 0 0 50 -1 0 12 0.0000 4 120 585 6660 3690 listeners\001
4 0 0 50 -1 0 12 0.0000 4 120 435 6660 3465 model\001
4 0 0 50 -1 0 12 0.0000 4 120 435 2160 3465 model\001
4 0 0 50 -1 0 12 0.0000 4 120 585 2160 3690 listeners\001
4 2 0 50 -1 0 12 0.0000 4 120 255 5220 3555 M2\001
4 2 0 50 -1 0 12 0.0000 4 120 825 5220 3960 M1Listener\001
4 2 0 50 -1 0 12 0.0000 4 120 825 585 3780 M2Listener\001
