#FIG 3.2
Landscape
Center
Metric
A4      
100.00
Single
-2
1200 2
2 2 0 1 0 7 50 -1 -1 0.000 0 0 -1 0 0 5
	 900 3150 2025 3150 2025 4050 900 4050 900 3150
2 2 0 1 0 7 50 -1 -1 0.000 0 0 -1 0 0 5
	 5400 3150 6525 3150 6525 4050 5400 4050 5400 3150
2 1 0 1 0 7 50 -1 -1 0.000 0 0 -1 1 0 2
	0 0 1.00 60.00 120.00
	 4410 5580 5265 3690
2 1 0 1 0 7 50 -1 -1 0.000 0 0 -1 1 0 6
	0 0 1.00 60.00 120.00
	 6660 3330 6885 3330 6885 2700 540 2700 540 3105 720 3285
2 1 0 1 0 7 50 -1 -1 0.000 0 0 -1 1 0 2
	0 0 1.00 60.00 120.00
	 2160 3330 3015 5580
2 1 0 1 0 7 50 -1 -1 0.000 0 0 -1 1 0 6
	0 0 1.00 60.00 120.00
	 4410 5940 4590 5940 4590 6750 540 6750 540 3555 720 3375
2 2 0 1 0 7 50 -1 -1 0.000 0 0 -1 0 0 5
	 3150 5400 4275 5400 4275 6300 3150 6300 3150 5400
2 1 0 1 12 7 50 -1 -1 0.000 0 0 -1 0 0 2
	 2115 3330 2025 3330
2 1 0 1 12 7 50 -1 -1 0.000 0 0 -1 0 0 2
	 2115 3195 2115 3465
2 1 0 1 12 7 50 -1 -1 0.000 0 0 -1 0 0 2
	 4365 5580 4275 5580
2 1 0 1 12 7 50 -1 -1 0.000 0 0 -1 0 0 2
	 4365 5445 4365 5715
2 1 0 1 12 7 50 -1 -1 0.000 0 0 -1 0 0 2
	 4365 5940 4275 5940
2 1 0 1 12 7 50 -1 -1 0.000 0 0 -1 0 0 2
	 4365 5805 4365 6075
2 1 0 1 12 7 50 -1 -1 0.000 0 0 -1 0 0 2
	 6615 3330 6525 3330
2 1 0 1 12 7 50 -1 -1 0.000 0 0 -1 0 0 2
	 6615 3195 6615 3465
2 1 0 2 4 7 50 -1 -1 0.000 0 0 -1 0 0 2
	 3060 5760 3060 6030
2 1 0 2 4 7 50 -1 -1 0.000 0 0 -1 0 0 2
	 3150 5895 3060 5895
2 1 0 2 4 7 50 -1 -1 0.000 0 0 -1 0 0 2
	 3060 5445 3060 5715
2 1 0 2 4 7 50 -1 -1 0.000 0 0 -1 0 0 2
	 3150 5580 3060 5580
2 1 0 2 4 7 50 -1 -1 0.000 0 0 -1 0 0 2
	 5310 3195 5310 3465
2 1 0 2 4 7 50 -1 -1 0.000 0 0 -1 0 0 2
	 5400 3330 5310 3330
2 1 0 2 4 7 50 -1 -1 0.000 0 0 -1 0 0 2
	 5400 3690 5310 3690
2 1 0 2 4 7 50 -1 -1 0.000 0 0 -1 0 0 2
	 5310 3555 5310 3825
2 1 0 2 4 7 50 -1 -1 0.000 0 0 -1 0 0 2
	 810 3195 810 3465
2 1 0 2 4 7 50 -1 -1 0.000 0 0 -1 0 0 2
	 900 3330 810 3330
4 0 0 50 -1 2 12 0.0000 4 135 480 945 3375 model\001
4 0 0 50 -1 0 12 0.0000 4 120 600 5445 3735 vlistener\001
4 0 0 50 -1 2 12 0.0000 4 135 795 5445 3375 controller\001
4 2 0 50 -1 0 12 0.0000 4 120 120 5220 3375 C\001
4 2 0 50 -1 0 12 0.0000 4 120 705 5220 3735 VListener\001
4 2 0 50 -1 0 12 0.0000 4 120 165 585 3375 M\001
4 2 0 50 -1 0 12 0.0000 4 120 735 2970 5625 MListener\001
4 2 0 50 -1 0 12 0.0000 4 120 135 2970 5940 V\001
4 0 0 50 -1 2 12 0.0000 4 135 375 3195 5940 view\001
4 0 0 50 -1 0 12 0.0000 4 120 585 2205 3330 listeners\001
4 0 0 50 -1 0 12 0.0000 4 120 585 4455 5715 listeners\001
4 0 0 50 -1 0 12 0.0000 4 120 435 4455 5895 model\001
4 0 0 50 -1 0 12 0.0000 4 120 435 6705 3465 model\001
4 0 0 50 -1 0 12 0.0000 4 120 645 3195 5625 mlistener\001
