#FIG 3.2
Landscape
Center
Metric
Letter  
100.00
Single
-2
1200 2
0 32 #808080
0 33 #bab7ba
1 3 0 1 4 7 50 -1 -1 0.000 1 0.0000 3465 5355 127 127 3465 5355 3592 5355
1 3 0 1 0 7 50 -1 -1 0.000 1 0.0000 3735 4635 127 127 3735 4635 3862 4635
1 3 0 1 4 7 50 -1 -1 0.000 1 0.0000 6390 5355 127 127 6390 5355 6517 5355
1 3 0 1 0 7 50 -1 -1 0.000 1 0.0000 6660 4635 127 127 6660 4635 6787 4635
1 3 0 1 4 7 50 -1 -1 0.000 1 0.0000 4815 2880 127 127 4815 2880 4942 2880
1 3 0 1 12 7 50 -1 -1 0.000 1 0.0000 5355 2880 127 127 5355 2880 5482 2880
1 3 0 1 0 7 50 -1 -1 0.000 1 0.0000 5085 2160 127 127 5085 2160 5212 2160
2 2 1 1 32 33 53 0 -1 4.000 0 0 -1 0 0 5
	 3600 4500 5490 4500 5490 6210 3600 6210 3600 4500
2 1 0 1 4 7 50 -1 -1 0.000 0 0 -1 1 0 2
	0 0 1.00 60.00 120.00
	 3458 5216 3728 4766
2 1 0 1 0 7 50 -1 -1 0.000 0 0 -1 1 0 3
	0 0 1.00 60.00 120.00
	 3600 4635 3465 4635 3465 5175
2 2 1 1 32 33 53 0 -1 4.000 0 0 -1 0 0 5
	 6525 4500 8415 4500 8415 6210 6525 6210 6525 4500
2 1 0 1 4 7 50 -1 -1 0.000 0 0 -1 1 0 2
	0 0 1.00 60.00 120.00
	 6383 5216 6653 4766
2 1 0 1 0 7 50 -1 -1 0.000 0 0 -1 1 0 3
	0 0 1.00 60.00 120.00
	 6525 4635 6390 4635 6390 5175
2 2 1 1 32 7 51 0 -1 4.000 0 0 -1 0 0 5
	 5220 2295 6570 2295 6570 3465 5220 3465 5220 2295
2 2 1 1 32 33 53 0 -1 4.000 0 0 -1 0 0 5
	 4950 2025 6840 2025 6840 3735 4950 3735 4950 2025
2 1 0 1 4 7 50 -1 -1 0.000 0 0 -1 1 0 2
	0 0 1.00 60.00 120.00
	 4905 2790 5265 2790
2 1 0 1 12 7 50 -1 -1 0.000 0 0 -1 1 0 2
	0 0 1.00 60.00 120.00
	 5265 2970 4905 2970
2 1 0 1 4 7 50 -1 -1 0.000 0 0 -1 1 0 2
	0 0 1.00 60.00 120.00
	 4808 2741 5078 2291
2 1 0 1 12 7 50 -1 -1 0.000 0 0 -1 1 0 2
	0 0 1.00 60.00 120.00
	 5362 2741 5092 2291
2 1 0 1 0 7 50 -1 -1 0.000 0 0 -1 1 0 3
	0 0 1.00 60.00 120.00
	 4950 2205 4815 2205 4815 2700
2 1 0 1 0 7 50 -1 -1 0.000 0 0 -1 1 0 3
	0 0 1.00 60.00 120.00
	 5085 4230 6660 4230 6660 4500
2 1 0 1 0 7 50 -1 -1 0.000 0 0 -1 1 0 3
	0 0 1.00 60.00 120.00
	 3735 4500 3735 2160 4950 2160
2 1 0 1 0 7 50 -1 -1 0.000 0 0 -1 1 0 4
	0 0 1.00 60.00 120.00
	 5085 2295 5085 4230 3780 4230 3780 4500
2 1 0 1 0 7 50 -1 -1 0.000 0 0 -1 1 0 3
	0 0 1.00 60.00 120.00
	 6705 4500 6705 2160 5220 2160
2 1 0 1 4 7 50 -1 -1 0.000 0 0 -1 1 0 3
	0 0 1.00 60.00 120.00
	 3600 5355 4815 5355 4815 3015
2 1 0 1 4 7 50 -1 -1 0.000 0 0 -1 0 0 2
	 6255 5355 4815 5355
4 1 0 50 -1 0 12 0.0000 4 165 1260 5085 4365 slave components\001
4 0 0 50 -1 0 12 1.5708 4 150 1290 3690 3825 master component\001
4 0 0 50 -1 0 12 1.5708 4 150 1290 6660 3825 master component\001
4 1 4 50 -1 0 12 0.0000 4 120 1110 4815 5535 master interface\001
4 0 4 50 -1 0 10 0.0000 4 60 360 3600 5130 owner\001
4 0 4 50 -1 0 10 0.0000 4 60 360 6525 5130 owner\001
4 0 4 50 -1 0 10 0.0000 4 60 360 4950 2655 owner\001
