#FIG 3.2
Landscape
Center
Metric
A4      
100.00
Single
-2
1200 2
2 1 0 1 0 7 50 0 -1 0.000 0 0 -1 1 0 2
	0 0 1.00 60.00 120.00
	 5265 1575 5265 990
2 1 0 1 0 7 50 0 -1 0.000 0 0 -1 1 0 2
	0 0 1.00 60.00 120.00
	 5265 2520 5265 1890
2 1 0 1 0 7 50 0 -1 0.000 0 0 -1 1 0 2
	0 0 1.00 60.00 120.00
	 1890 3420 4860 2790
2 1 0 1 0 7 50 0 -1 0.000 0 0 -1 1 0 2
	0 0 1.00 60.00 120.00
	 3825 3420 5130 2790
2 1 0 1 0 7 50 0 -1 0.000 0 0 -1 1 0 2
	0 0 1.00 60.00 120.00
	 7470 3375 5535 2790
2 1 0 1 0 7 50 0 -1 0.000 0 0 -1 1 0 2
	0 0 1.00 60.00 120.00
	 9540 3375 5760 2790
2 1 0 1 0 7 50 0 -1 0.000 0 0 -1 1 0 2
	0 0 1.00 60.00 120.00
	 5265 4230 5265 2790
2 1 0 1 0 7 50 0 -1 0.000 0 0 -1 1 0 2
	0 0 1.00 60.00 120.00
	 1755 3420 4725 1890
2 1 0 1 0 7 50 0 -1 0.000 0 0 -1 1 0 2
	0 0 1.00 60.00 120.00
	 3690 3420 4815 1890
2 1 0 1 0 7 50 0 -1 0.000 0 0 -1 1 0 2
	0 0 1.00 60.00 120.00
	 7605 3375 5805 1890
2 1 0 1 0 7 50 0 -1 0.000 0 0 -1 1 0 2
	0 0 1.00 60.00 120.00
	 9675 3375 5895 1890
2 1 0 1 0 7 50 0 -1 0.000 0 0 -1 1 0 2
	0 0 1.00 60.00 120.00
	 5400 4230 5400 1890
2 1 0 1 0 7 50 0 -1 0.000 0 0 -1 1 0 2
	0 0 1.00 60.00 120.00
	 5535 2520 5535 990
2 1 0 1 0 7 50 0 -1 0.000 0 0 -1 1 0 2
	0 0 1.00 60.00 120.00
	 9765 2475 5940 990
2 1 0 1 0 7 50 0 -1 0.000 0 0 -1 1 0 2
	0 0 1.00 60.00 120.00
	 9810 3375 9810 2790
4 0 0 50 0 0 12 0.0000 4 120 1545 4500 900 BasicControllerMixin\001
4 0 4 50 0 0 12 0.0000 4 120 2100 4500 2700 BasicContentControllerMixin\001
4 0 0 50 0 0 12 0.0000 4 165 1545 4500 1800 UseComponentMixin\001
4 0 4 50 0 0 12 0.0000 4 165 1410 4500 4500 SuperContentMixin\001
4 0 4 50 0 0 12 0.0000 4 165 1350 2970 3600 TypeContentMixin\001
4 0 4 50 0 0 12 0.0000 4 120 1440 990 3600 CheckContentMixin\001
4 0 4 50 0 0 12 0.0000 4 165 1560 6615 3600 BindingContentMixin\001
4 0 4 5 0 0 12 0.0000 4 165 1680 8865 3600 LifeCycleContentMixin\001
4 0 0 5 0 0 12 0.0000 4 165 2130 8865 2700 UseLifeCycleControllerMixin\001
