<?xml version="1.0" encoding="UTF-8" standalone="no"?>
<!-- Generated by cwi.SVGGraphics.SVGGraphics java object, copyright CWI, Amsterdam -->
<svg
   xmlns:dc="http://purl.org/dc/elements/1.1/"
   xmlns:cc="http://web.resource.org/cc/"
   xmlns:rdf="http://www.w3.org/1999/02/22-rdf-syntax-ns#"
   xmlns:svg="http://www.w3.org/2000/svg"
   xmlns="http://www.w3.org/2000/svg"
   xmlns:sodipodi="http://inkscape.sourceforge.net/DTD/sodipodi-0.dtd"
   xmlns:inkscape="http://www.inkscape.org/namespaces/inkscape"
   inkscape:export-ydpi="90.000000"
   inkscape:export-xdpi="90.000000"
   inkscape:export-filename="/home/pavel/work/ft/svn/fractalprotocols/trunk/doc/images/adl_compiler.png"
   xml:space="preserve"
   width="903"
   height="535.59998pt"
   id="svg2"
   sodipodi:version="0.32"
   inkscape:version="0.43"
   sodipodi:docname="adl_compiler.svg"
   sodipodi:docbase="/home/pavel/work/ft/svn/fractalprotocols/trunk/doc/images"
   version="1.0"><metadata
   id="metadata539">
  <rdf:RDF>
    <cc:Work
   rdf:about="">
      <dc:format>image/svg+xml</dc:format>



      <dc:type
   rdf:resource="http://purl.org/dc/dcmitype/StillImage" />



    </cc:Work>



  </rdf:RDF>



</metadata>



<sodipodi:namedview
   id="base"
   pagecolor="#ffffff"
   bordercolor="#666666"
   borderopacity="1.0"
   inkscape:pageopacity="0.0"
   inkscape:pageshadow="2"
   inkscape:window-width="1068"
   inkscape:window-height="727"
   inkscape:zoom="0.71093598"
   inkscape:cx="455.06168"
   inkscape:cy="301.67234"
   inkscape:window-x="5"
   inkscape:window-y="30"
   inkscape:current-layer="svg2" />




  <defs
   id="defs4">
  
    
    
    
    
    
    
    <clipPath
   id="clipPath22">
      <rect
   x="8"
   y="4"
   width="868"
   height="12"
   id="rect24" />




    </clipPath>




    
    <clipPath
   id="clipPath28">
      <rect
   x="0"
   y="0"
   width="903"
   height="627"
   id="rect30" />




    </clipPath>




    <clipPath
   id="clipPath32">
      <rect
   x="20"
   y="22"
   width="846"
   height="12"
   id="rect34" />




    </clipPath>




    
    <clipPath
   id="clipPath38">
      <rect
   x="0"
   y="0"
   width="903"
   height="627"
   id="rect40" />




    </clipPath>




    
    
    
    
    
    
    <clipPath
   id="clipPath54">
      <rect
   x="19"
   y="22"
   width="846"
   height="12"
   id="rect56" />




    </clipPath>




    
    <clipPath
   id="clipPath60">
      <rect
   x="0"
   y="0"
   width="903"
   height="627"
   id="rect62" />




    </clipPath>




    
    
    
    
    
    <clipPath
   id="clipPath74">
      <rect
   x="19"
   y="38"
   width="846"
   height="12"
   id="rect76" />




    </clipPath>




    
    <clipPath
   id="clipPath80">
      <rect
   x="0"
   y="0"
   width="903"
   height="627"
   id="rect82" />




    </clipPath>




    
    
    
    
    
    <clipPath
   id="clipPath94">
      <rect
   x="19"
   y="54"
   width="846"
   height="12"
   id="rect96" />




    </clipPath>




    
    <clipPath
   id="clipPath100">
      <rect
   x="0"
   y="0"
   width="903"
   height="627"
   id="rect102" />




    </clipPath>




    
    
    
    
    
    <clipPath
   id="clipPath114">
      <rect
   x="19"
   y="70"
   width="846"
   height="12"
   id="rect116" />




    </clipPath>




    
    <clipPath
   id="clipPath120">
      <rect
   x="0"
   y="0"
   width="903"
   height="627"
   id="rect122" />




    </clipPath>




    
    
    
    
    
    <clipPath
   id="clipPath134">
      <rect
   x="19"
   y="86"
   width="846"
   height="12"
   id="rect136" />




    </clipPath>




    
    <clipPath
   id="clipPath140">
      <rect
   x="0"
   y="0"
   width="903"
   height="627"
   id="rect142" />




    </clipPath>




    
    
    
    
    
    <clipPath
   id="clipPath154">
      <rect
   x="19"
   y="102"
   width="846"
   height="12"
   id="rect156" />




    </clipPath>




    
    <clipPath
   id="clipPath160">
      <rect
   x="0"
   y="0"
   width="903"
   height="627"
   id="rect162" />




    </clipPath>




    
    
    
    
    
  
    
    
    
    
    <clipPath
   id="clipPath380">
      <path
   d="M 22,13 L 880,13 L 880,613 L 22,613 L 22,13 z "
   id="path382" />




    </clipPath>




    
    <clipPath
   id="clipPath386">
      <path
   d="M 22,13 L 880,13 L 880,613 L 22,613 L 22,13 z "
   id="path388" />




    </clipPath>




    
    
    
    
    <clipPath
   id="clipPath398">
      <path
   d="M 22,13 L 880,13 L 880,613 L 22,613 L 22,13 z "
   id="path400" />




    </clipPath>




    
    
    
    
    <clipPath
   id="clipPath410">
      <path
   d="M 22,13 L 880,13 L 880,613 L 22,613 L 22,13 z "
   id="path412" />




    </clipPath>




    
    
    
    <clipPath
   id="clipPath420">
      <path
   d="M 22,13 L 880,13 L 880,613 L 22,613 L 22,13 z "
   id="path422" />




    </clipPath>




    
    
    
    <clipPath
   id="clipPath430">
      <path
   d="M 22,13 L 880,13 L 880,613 L 22,613 L 22,13 z "
   id="path432" />




    </clipPath>




    
    
    
    <clipPath
   id="clipPath440">
      <path
   d="M 22,13 L 880,13 L 880,613 L 22,613 L 22,13 z "
   id="path442" />




    </clipPath>




    
    
    
    <clipPath
   id="clipPath450">
      <path
   d="M 22,13 L 880,13 L 880,613 L 22,613 L 22,13 z "
   id="path452" />




    </clipPath>




    
    
    
    <clipPath
   id="clipPath460">
      <path
   d="M 22,13 L 880,13 L 880,613 L 22,613 L 22,13 z "
   id="path462" />




    </clipPath>




    
    
  
    
    
    
    
    
    
    
    
    
    
    
    
    
    <clipPath
   id="clipPath534">
      <rect
   x="0"
   y="0"
   width="903"
   height="627"
   id="rect536" />




    </clipPath>




  </defs>




  <rect
   style="fill:#ffffff;stroke:none"
   x="0"
   y="0"
   width="903"
   height="709.75861"
   id="rect6" />




  <polygon
   style="fill:#c0c0c0;stroke:none;stroke-linecap:square;stroke-linejoin:bevel"
   points="10,4 881,4 881,617 17,617 10,610 10,4 "
   id="polygon10"
   transform="matrix(1,0,0,1.085913,9,5.656349)" />



<polygon
   style="fill:#ffffb7;stroke:none;stroke-linecap:square;stroke-linejoin:bevel"
   points="6,0 877,0 877,613 13,613 6,606 6,0 "
   id="polygon12"
   transform="matrix(1,0,0,1.149325,9,6)" />



<polygon
   style="fill:none;stroke:#ff6633;stroke-linecap:square;stroke-linejoin:bevel"
   points="6,0 877,0 877,613 13,613 6,606 6,0 "
   id="polygon14"
   transform="matrix(1,0,0,1.151127,9,6.074636)" />



<polygon
   style="fill:none;stroke:#ff6633;stroke-linecap:square;stroke-linejoin:bevel"
   points="5,-1 878,-1 878,614 13,614 5,606 5,-1 "
   id="polygon16"
   transform="matrix(1,0,0,1.150638,9,6.224309)" />



<rect
   style="fill:#ffffff;stroke:none;stroke-linecap:square;stroke-linejoin:bevel"
   x="20"
   y="11"
   width="862"
   height="696.79004"
   id="rect18" />



<rect
   style="fill:none;stroke:#000000;stroke-linecap:square;stroke-linejoin:bevel"
   x="20"
   y="11.074391"
   width="861"
   height="694.38727"
   id="rect20" />



<text
   x="23"
   y="24"
   id="text26">compiler</text>






<text
   x="29"
   y="42"
   id="text36">compiler</text>






<line
   style="fill:none;stroke:#000000;stroke-linecap:square;stroke-linejoin:bevel"
   x1="20"
   y1="36"
   x2="26"
   y2="36"
   id="line42" />



<line
   style="fill:none;stroke:#000000;stroke-linecap:square;stroke-linejoin:bevel"
   x1="26"
   y1="30"
   x2="26"
   y2="42"
   id="line44" />



<line
   style="fill:none;stroke:#000000;stroke-linecap:square;stroke-linejoin:bevel"
   x1="25"
   y1="30"
   x2="25"
   y2="42"
   id="line46" />



<line
   style="fill:none;stroke:#000000;stroke-linecap:square;stroke-linejoin:bevel"
   x1="9"
   y1="36"
   x2="14"
   y2="36"
   id="line48" />



<line
   style="fill:none;stroke:#000000;stroke-linecap:square;stroke-linejoin:bevel"
   x1="9"
   y1="30"
   x2="9"
   y2="42"
   id="line50" />



<line
   style="fill:none;stroke:#000000;stroke-linecap:square;stroke-linejoin:bevel"
   x1="10"
   y1="30"
   x2="10"
   y2="42"
   id="line52" />



<text
   x="796.39844"
   y="38"
   id="text58">type-builder</text>






<line
   style="fill:none;stroke:#000000;stroke-linecap:square;stroke-linejoin:bevel"
   x1="876"
   y1="32"
   x2="881"
   y2="32"
   id="line64" />



<line
   style="fill:none;stroke:#000000;stroke-linecap:square;stroke-linejoin:bevel"
   x1="876"
   y1="26"
   x2="876"
   y2="38"
   id="line66" />



<line
   style="fill:none;stroke:#000000;stroke-linecap:square;stroke-linejoin:bevel"
   x1="887"
   y1="32"
   x2="892"
   y2="32"
   id="line68" />



<line
   style="fill:none;stroke:#000000;stroke-linecap:square;stroke-linejoin:bevel"
   x1="892"
   y1="26"
   x2="892"
   y2="38"
   id="line70" />



<line
   style="fill:none;stroke:#000000;stroke-linecap:square;stroke-linejoin:bevel"
   x1="893"
   y1="26"
   x2="893"
   y2="38"
   id="line72" />



<text
   x="727.84766"
   y="54"
   id="text78">implementation-builder</text>






<line
   style="fill:none;stroke:#000000;stroke-linecap:square;stroke-linejoin:bevel"
   x1="876"
   y1="48"
   x2="881"
   y2="48"
   id="line84" />



<line
   style="fill:none;stroke:#000000;stroke-linecap:square;stroke-linejoin:bevel"
   x1="876"
   y1="42"
   x2="876"
   y2="54"
   id="line86" />



<line
   style="fill:none;stroke:#000000;stroke-linecap:square;stroke-linejoin:bevel"
   x1="887"
   y1="48"
   x2="892"
   y2="48"
   id="line88" />



<line
   style="fill:none;stroke:#000000;stroke-linecap:square;stroke-linejoin:bevel"
   x1="892"
   y1="42"
   x2="892"
   y2="54"
   id="line90" />



<line
   style="fill:none;stroke:#000000;stroke-linecap:square;stroke-linejoin:bevel"
   x1="893"
   y1="42"
   x2="893"
   y2="54"
   id="line92" />



<text
   x="753.55078"
   y="70"
   id="text98">component-builder</text>






<line
   style="fill:none;stroke:#000000;stroke-linecap:square;stroke-linejoin:bevel"
   x1="876"
   y1="64"
   x2="881"
   y2="64"
   id="line104" />



<line
   style="fill:none;stroke:#000000;stroke-linecap:square;stroke-linejoin:bevel"
   x1="876"
   y1="58"
   x2="876"
   y2="70"
   id="line106" />



<line
   style="fill:none;stroke:#000000;stroke-linecap:square;stroke-linejoin:bevel"
   x1="887"
   y1="64"
   x2="892"
   y2="64"
   id="line108" />



<line
   style="fill:none;stroke:#000000;stroke-linecap:square;stroke-linejoin:bevel"
   x1="892"
   y1="58"
   x2="892"
   y2="70"
   id="line110" />



<line
   style="fill:none;stroke:#000000;stroke-linecap:square;stroke-linejoin:bevel"
   x1="893"
   y1="58"
   x2="893"
   y2="70"
   id="line112" />



<text
   x="777.66797"
   y="86"
   id="text118">binding-builder</text>






<line
   style="fill:none;stroke:#000000;stroke-linecap:square;stroke-linejoin:bevel"
   x1="876"
   y1="80"
   x2="881"
   y2="80"
   id="line124" />



<line
   style="fill:none;stroke:#000000;stroke-linecap:square;stroke-linejoin:bevel"
   x1="876"
   y1="74"
   x2="876"
   y2="86"
   id="line126" />



<line
   style="fill:none;stroke:#000000;stroke-linecap:square;stroke-linejoin:bevel"
   x1="887"
   y1="80"
   x2="892"
   y2="80"
   id="line128" />



<line
   style="fill:none;stroke:#000000;stroke-linecap:square;stroke-linejoin:bevel"
   x1="892"
   y1="74"
   x2="892"
   y2="86"
   id="line130" />



<line
   style="fill:none;stroke:#000000;stroke-linecap:square;stroke-linejoin:bevel"
   x1="893"
   y1="74"
   x2="893"
   y2="86"
   id="line132" />



<text
   x="772.25391"
   y="102"
   id="text138">attribute-builder</text>






<line
   style="fill:none;stroke:#000000;stroke-linecap:square;stroke-linejoin:bevel"
   x1="876"
   y1="96"
   x2="881"
   y2="96"
   id="line144" />



<line
   style="fill:none;stroke:#000000;stroke-linecap:square;stroke-linejoin:bevel"
   x1="876"
   y1="90"
   x2="876"
   y2="102"
   id="line146" />



<line
   style="fill:none;stroke:#000000;stroke-linecap:square;stroke-linejoin:bevel"
   x1="887"
   y1="96"
   x2="892"
   y2="96"
   id="line148" />



<line
   style="fill:none;stroke:#000000;stroke-linecap:square;stroke-linejoin:bevel"
   x1="892"
   y1="90"
   x2="892"
   y2="102"
   id="line150" />



<line
   style="fill:none;stroke:#000000;stroke-linecap:square;stroke-linejoin:bevel"
   x1="893"
   y1="90"
   x2="893"
   y2="102"
   id="line152" />



<text
   x="773.01953"
   y="118"
   id="text158">protocol-builder</text>






<line
   style="fill:none;stroke:#ff0000;stroke-linecap:square;stroke-linejoin:bevel"
   x1="876"
   y1="112"
   x2="881"
   y2="112"
   id="line164" />



<line
   style="fill:none;stroke:#ff0000;stroke-linecap:square;stroke-linejoin:bevel"
   x1="876"
   y1="106"
   x2="876"
   y2="118"
   id="line166" />



<line
   style="fill:none;stroke:#ff0000;stroke-linecap:square;stroke-linejoin:bevel"
   x1="887"
   y1="112"
   x2="892"
   y2="112"
   id="line168" />



<line
   style="fill:none;stroke:#ff0000;stroke-linecap:square;stroke-linejoin:bevel"
   x1="892"
   y1="106"
   x2="892"
   y2="118"
   id="line170" />



<line
   style="fill:none;stroke:#ff0000;stroke-linecap:square;stroke-linejoin:bevel"
   x1="893"
   y1="106"
   x2="893"
   y2="118"
   id="line172" />




  <g
   style="stroke-linecap:square;stroke-linejoin:bevel"
   id="g174">
    <clipPath
   id="clipPath176">
      <rect
   x="22"
   y="13"
   width="858"
   height="600"
   id="rect178" />




    </clipPath>




  </g>




  <g
   transform="translate(493,515)"
   style="stroke-linecap:square;stroke-linejoin:bevel"
   id="g180">
    <polygon
   style="fill:#c0c0c0;stroke:none"
   points="10,4 174,4 174,72 17,72 10,65 10,4 "
   id="polygon182" />




    <polygon
   style="fill:#ffffb7;stroke:none"
   points="6,0 170,0 170,68 13,68 6,61 6,0 "
   id="polygon184" />




    <polygon
   style="fill:none;stroke:#000000"
   points="6,0 170,0 170,68 13,68 6,61 6,0 "
   id="polygon186" />




    <text
   x="8"
   y="14"
   style="font-size:14px;font-weight:bold;fill:#000000;font-family:Arial"
   id="text188">protocol-compiler</text>







    <clipPath
   id="clipPath190">
      <path
   d="M 22,13 L 880,13 L 880,613 L 22,613 L 22,13 z "
   id="path192" />




    </clipPath>




    <text
   x="8"
   y="32"
   style="font-size:14px;fill:#000000;font-family:Arial"
   id="text194">compiler</text>







    <clipPath
   id="clipPath196">
      <path
   d="M 22,13 L 880,13 L 880,613 L 22,613 L 22,13 z "
   id="path198" />




    </clipPath>




    <line
   style="fill:none;stroke:#000000"
   x1="0"
   y1="26"
   x2="5"
   y2="26"
   id="line200" />




    <line
   style="fill:none;stroke:#000000"
   x1="0"
   y1="20"
   x2="0"
   y2="32"
   id="line202" />




    <line
   style="fill:none;stroke:#000000"
   x1="1"
   y1="20"
   x2="1"
   y2="32"
   id="line204" />




    <text
   x="120"
   y="32"
   style="font-size:14px;font-style:italic;fill:#ff0000;font-family:Arial"
   id="text206">builder</text>







    <clipPath
   id="clipPath208">
      <path
   d="M 22,13 L 880,13 L 880,613 L 22,613 L 22,13 z "
   id="path210" />




    </clipPath>




    <line
   style="fill:none;stroke:#ff0000"
   x1="171"
   y1="26"
   x2="176"
   y2="26"
   id="line212" />




    <line
   style="fill:none;stroke:#ff0000"
   x1="176"
   y1="20"
   x2="176"
   y2="32"
   id="line214" />




    <line
   style="fill:none;stroke:#ff0000"
   x1="177"
   y1="20"
   x2="177"
   y2="32"
   id="line216" />




  </g>




  <g
   transform="translate(491,417)"
   style="stroke-linecap:square;stroke-linejoin:bevel"
   id="g218">
    <polygon
   style="fill:#c0c0c0;stroke:none"
   points="10,4 177,4 177,72 17,72 10,65 10,4 "
   id="polygon220" />




    <polygon
   style="fill:#ffffb7;stroke:none"
   points="6,0 173,0 173,68 13,68 6,61 6,0 "
   id="polygon222" />




    <polygon
   style="fill:none;stroke:#000000"
   points="6,0 173,0 173,68 13,68 6,61 6,0 "
   id="polygon224" />




    <text
   x="8"
   y="14"
   style="font-size:14px;font-weight:bold;fill:#000000;font-family:Arial"
   id="text226">attribute-compiler</text>







    <clipPath
   id="clipPath228">
      <path
   d="M 22,13 L 880,13 L 880,613 L 22,613 L 22,13 z "
   id="path230" />




    </clipPath>




    <text
   x="8"
   y="32"
   style="font-size:14px;fill:#000000;font-family:Arial"
   id="text232">compiler</text>







    <clipPath
   id="clipPath234">
      <path
   d="M 22,13 L 880,13 L 880,613 L 22,613 L 22,13 z "
   id="path236" />




    </clipPath>




    <line
   style="fill:none;stroke:#000000"
   x1="0"
   y1="26"
   x2="5"
   y2="26"
   id="line238" />




    <line
   style="fill:none;stroke:#000000"
   x1="0"
   y1="20"
   x2="0"
   y2="32"
   id="line240" />




    <line
   style="fill:none;stroke:#000000"
   x1="1"
   y1="20"
   x2="1"
   y2="32"
   id="line242" />




    <text
   x="123"
   y="32"
   style="font-size:14px;font-style:italic;fill:#000000;font-family:Arial"
   id="text244">builder</text>







    <clipPath
   id="clipPath246">
      <path
   d="M 22,13 L 880,13 L 880,613 L 22,613 L 22,13 z "
   id="path248" />




    </clipPath>




    <line
   style="fill:none;stroke:#000000"
   x1="174"
   y1="26"
   x2="179"
   y2="26"
   id="line250" />




    <line
   style="fill:none;stroke:#000000"
   x1="179"
   y1="20"
   x2="179"
   y2="32"
   id="line252" />




    <line
   style="fill:none;stroke:#000000"
   x1="180"
   y1="20"
   x2="180"
   y2="32"
   id="line254" />




  </g>




  <g
   transform="translate(486,317)"
   style="stroke-linecap:square;stroke-linejoin:bevel"
   id="g256">
    <polygon
   style="fill:#c0c0c0;stroke:none"
   points="10,4 182,4 182,72 17,72 10,65 10,4 "
   id="polygon258" />




    <polygon
   style="fill:#ffffb7;stroke:none"
   points="6,0 178,0 178,68 13,68 6,61 6,0 "
   id="polygon260" />




    <polygon
   style="fill:none;stroke:#000000"
   points="6,0 178,0 178,68 13,68 6,61 6,0 "
   id="polygon262" />




    <text
   x="8"
   y="14"
   style="font-size:14px;font-weight:bold;fill:#000000;font-family:Arial"
   id="text264">binding-compiler</text>







    <clipPath
   id="clipPath266">
      <path
   d="M 22,13 L 880,13 L 880,613 L 22,613 L 22,13 z "
   id="path268" />




    </clipPath>




    <text
   x="8"
   y="32"
   style="font-size:14px;fill:#000000;font-family:Arial"
   id="text270">compiler</text>







    <clipPath
   id="clipPath272">
      <path
   d="M 22,13 L 880,13 L 880,613 L 22,613 L 22,13 z "
   id="path274" />




    </clipPath>




    <line
   style="fill:none;stroke:#000000"
   x1="0"
   y1="26"
   x2="5"
   y2="26"
   id="line276" />




    <line
   style="fill:none;stroke:#000000"
   x1="0"
   y1="20"
   x2="0"
   y2="32"
   id="line278" />




    <line
   style="fill:none;stroke:#000000"
   x1="1"
   y1="20"
   x2="1"
   y2="32"
   id="line280" />




    <text
   x="128"
   y="32"
   style="font-size:14px;font-style:italic;fill:#000000;font-family:Arial"
   id="text282">builder</text>







    <clipPath
   id="clipPath284">
      <path
   d="M 22,13 L 880,13 L 880,613 L 22,613 L 22,13 z "
   id="path286" />




    </clipPath>




    <line
   style="fill:none;stroke:#000000"
   x1="179"
   y1="26"
   x2="184"
   y2="26"
   id="line288" />




    <line
   style="fill:none;stroke:#000000"
   x1="184"
   y1="20"
   x2="184"
   y2="32"
   id="line290" />




    <line
   style="fill:none;stroke:#000000"
   x1="185"
   y1="20"
   x2="185"
   y2="32"
   id="line292" />




  </g>




  <g
   transform="translate(487,221)"
   style="stroke-linecap:square;stroke-linejoin:bevel"
   id="g294">
    <polygon
   style="fill:#c0c0c0;stroke:none"
   points="10,4 182,4 182,73 17,73 10,66 10,4 "
   id="polygon296" />




    <polygon
   style="fill:#ffffb7;stroke:none"
   points="6,0 178,0 178,69 13,69 6,62 6,0 "
   id="polygon298" />




    <polygon
   style="fill:none;stroke:#000000"
   points="6,0 178,0 178,69 13,69 6,62 6,0 "
   id="polygon300" />




    <text
   x="8"
   y="14"
   style="font-size:14px;font-weight:bold;fill:#000000;font-family:Arial"
   id="text302">component-compiler</text>







    <clipPath
   id="clipPath304">
      <path
   d="M 22,13 L 880,13 L 880,613 L 22,613 L 22,13 z "
   id="path306" />




    </clipPath>




    <text
   x="8"
   y="32"
   style="font-size:14px;fill:#000000;font-family:Arial"
   id="text308">compiler</text>







    <clipPath
   id="clipPath310">
      <path
   d="M 22,13 L 880,13 L 880,613 L 22,613 L 22,13 z "
   id="path312" />




    </clipPath>




    <line
   style="fill:none;stroke:#000000"
   x1="0"
   y1="26"
   x2="5"
   y2="26"
   id="line314" />




    <line
   style="fill:none;stroke:#000000"
   x1="0"
   y1="20"
   x2="0"
   y2="32"
   id="line316" />




    <line
   style="fill:none;stroke:#000000"
   x1="1"
   y1="20"
   x2="1"
   y2="32"
   id="line318" />




    <text
   x="128"
   y="32"
   style="font-size:14px;font-style:italic;fill:#000000;font-family:Arial"
   id="text320">builder</text>







    <clipPath
   id="clipPath322">
      <path
   d="M 22,13 L 880,13 L 880,613 L 22,613 L 22,13 z "
   id="path324" />




    </clipPath>




    <line
   style="fill:none;stroke:#000000"
   x1="179"
   y1="26"
   x2="184"
   y2="26"
   id="line326" />




    <line
   style="fill:none;stroke:#000000"
   x1="184"
   y1="20"
   x2="184"
   y2="32"
   id="line328" />




    <line
   style="fill:none;stroke:#000000"
   x1="185"
   y1="20"
   x2="185"
   y2="32"
   id="line330" />




  </g>




  <g
   transform="translate(487,128)"
   style="stroke-linecap:square;stroke-linejoin:bevel"
   id="g332">
    <polygon
   style="fill:#c0c0c0;stroke:none"
   points="10,4 183,4 183,74 17,74 10,67 10,4 "
   id="polygon334" />




    <polygon
   style="fill:#ffffb7;stroke:none"
   points="6,0 179,0 179,70 13,70 6,63 6,0 "
   id="polygon336" />




    <polygon
   style="fill:none;stroke:#000000"
   points="6,0 179,0 179,70 13,70 6,63 6,0 "
   id="polygon338" />




    <text
   x="8"
   y="14"
   style="font-size:14px;font-weight:bold;fill:#000000;font-family:Arial"
   id="text340">implementation-compiler</text>







    <clipPath
   id="clipPath342">
      <path
   d="M 22,13 L 880,13 L 880,613 L 22,613 L 22,13 z "
   id="path344" />




    </clipPath>




    <text
   x="8"
   y="32"
   style="font-size:14px;fill:#000000;font-family:Arial"
   id="text346">compiler</text>







    <clipPath
   id="clipPath348">
      <path
   d="M 22,13 L 880,13 L 880,613 L 22,613 L 22,13 z "
   id="path350" />




    </clipPath>




    <line
   style="fill:none;stroke:#000000"
   x1="0"
   y1="26"
   x2="5"
   y2="26"
   id="line352" />




    <line
   style="fill:none;stroke:#000000"
   x1="0"
   y1="20"
   x2="0"
   y2="32"
   id="line354" />




    <line
   style="fill:none;stroke:#000000"
   x1="1"
   y1="20"
   x2="1"
   y2="32"
   id="line356" />




    <text
   x="129"
   y="32"
   style="font-size:14px;font-style:italic;fill:#000000;font-family:Arial"
   id="text358">builder</text>







    <clipPath
   id="clipPath360">
      <path
   d="M 22,13 L 880,13 L 880,613 L 22,613 L 22,13 z "
   id="path362" />




    </clipPath>




    <line
   style="fill:none;stroke:#000000"
   x1="180"
   y1="26"
   x2="185"
   y2="26"
   id="line364" />




    <line
   style="fill:none;stroke:#000000"
   x1="185"
   y1="20"
   x2="185"
   y2="32"
   id="line366" />




    <line
   style="fill:none;stroke:#000000"
   x1="186"
   y1="20"
   x2="186"
   y2="32"
   id="line368" />




  </g>




  <polygon
   style="fill:#c0c0c0;stroke:none;stroke-linecap:square;stroke-linejoin:bevel"
   points="10,4 269,4 269,212 17,212 10,205 10,4 "
   id="polygon372"
   transform="translate(77,99)" />



<polygon
   style="fill:#ffffb7;stroke:none;stroke-linecap:square;stroke-linejoin:bevel"
   points="6,0 265,0 265,208 13,208 6,201 6,0 "
   id="polygon374"
   transform="translate(77,99)" />



<polygon
   style="fill:none;stroke:#000000;stroke-linecap:square;stroke-linejoin:bevel"
   points="6,0 265,0 265,208 13,208 6,201 6,0 "
   id="polygon376"
   transform="translate(77,99)" />



<text
   x="85"
   y="113"
   id="text378">main-compiler</text>






<text
   x="85"
   y="131"
   id="text384">compiler</text>






<line
   style="fill:none;stroke:#000000;stroke-linecap:square;stroke-linejoin:bevel"
   x1="77"
   y1="125"
   x2="82"
   y2="125"
   id="line390" />



<line
   style="fill:none;stroke:#000000;stroke-linecap:square;stroke-linejoin:bevel"
   x1="77"
   y1="119"
   x2="77"
   y2="131"
   id="line392" />



<line
   style="fill:none;stroke:#000000;stroke-linecap:square;stroke-linejoin:bevel"
   x1="78"
   y1="119"
   x2="78"
   y2="131"
   id="line394" />



<text
   x="218"
   y="131"
   id="text396">primitive-compilers</text>






<line
   style="fill:none;stroke:#000000;stroke-linecap:square;stroke-linejoin:bevel"
   x1="343"
   y1="125"
   x2="348"
   y2="125"
   id="line402" />



<line
   style="fill:none;stroke:#000000;stroke-linecap:square;stroke-linejoin:bevel"
   x1="346"
   y1="119"
   x2="346"
   y2="131"
   id="line404" />



<line
   style="fill:none;stroke:#000000;stroke-linecap:square;stroke-linejoin:bevel"
   x1="349"
   y1="119"
   x2="349"
   y2="131"
   id="line406" />



<text
   x="216"
   y="147"
   id="text408">primitive-compiler0</text>






<line
   style="fill:none;stroke:#808080;stroke-linecap:square;stroke-linejoin:bevel"
   x1="343"
   y1="141"
   x2="348"
   y2="141"
   id="line414" />



<line
   style="fill:none;stroke:#808080;stroke-linecap:square;stroke-linejoin:bevel"
   x1="348"
   y1="135"
   x2="348"
   y2="147"
   id="line416" />



<text
   x="216"
   y="163"
   id="text418">primitive-compiler1</text>






<line
   style="fill:none;stroke:#808080;stroke-linecap:square;stroke-linejoin:bevel"
   x1="343"
   y1="157"
   x2="348"
   y2="157"
   id="line424" />



<line
   style="fill:none;stroke:#808080;stroke-linecap:square;stroke-linejoin:bevel"
   x1="348"
   y1="151"
   x2="348"
   y2="163"
   id="line426" />



<text
   x="216"
   y="179"
   id="text428">primitive-compiler2</text>






<line
   style="fill:none;stroke:#808080;stroke-linecap:square;stroke-linejoin:bevel"
   x1="343"
   y1="173"
   x2="348"
   y2="173"
   id="line434" />



<line
   style="fill:none;stroke:#808080;stroke-linecap:square;stroke-linejoin:bevel"
   x1="348"
   y1="167"
   x2="348"
   y2="179"
   id="line436" />



<text
   x="216"
   y="195"
   id="text438">primitive-compiler3</text>






<line
   style="fill:none;stroke:#808080;stroke-linecap:square;stroke-linejoin:bevel"
   x1="343"
   y1="189"
   x2="348"
   y2="189"
   id="line444" />



<line
   style="fill:none;stroke:#808080;stroke-linecap:square;stroke-linejoin:bevel"
   x1="348"
   y1="183"
   x2="348"
   y2="195"
   id="line446" />



<text
   x="216"
   y="211"
   id="text448">primitive-compiler4</text>






<line
   style="fill:none;stroke:#808080;stroke-linecap:square;stroke-linejoin:bevel"
   x1="343"
   y1="205"
   x2="348"
   y2="205"
   id="line454" />



<line
   style="fill:none;stroke:#808080;stroke-linecap:square;stroke-linejoin:bevel"
   x1="348"
   y1="199"
   x2="348"
   y2="211"
   id="line456" />



<text
   x="216"
   y="227"
   id="text458">primitive-compiler5</text>






<line
   style="fill:none;stroke:#808080;stroke-linecap:square;stroke-linejoin:bevel"
   x1="343"
   y1="221"
   x2="348"
   y2="221"
   id="line464" />



<line
   style="fill:none;stroke:#808080;stroke-linecap:square;stroke-linejoin:bevel"
   x1="348"
   y1="215"
   x2="348"
   y2="227"
   id="line466" />




  <g
   transform="translate(486,33)"
   style="stroke-linecap:square;stroke-linejoin:bevel"
   id="g468">
    <polygon
   style="fill:#c0c0c0;stroke:none"
   points="10,4 183,4 183,73 17,73 10,66 10,4 "
   id="polygon470" />




    <polygon
   style="fill:#ffffb7;stroke:none"
   points="6,0 179,0 179,69 13,69 6,62 6,0 "
   id="polygon472" />




    <polygon
   style="fill:none;stroke:#000000"
   points="6,0 179,0 179,69 13,69 6,62 6,0 "
   id="polygon474" />




    <text
   x="8"
   y="14"
   style="font-size:14px;font-weight:bold;fill:#000000;font-family:Arial"
   id="text476">type-compiler</text>







    <clipPath
   id="clipPath478">
      <path
   d="M 22,13 L 880,13 L 880,613 L 22,613 L 22,13 z "
   id="path480" />




    </clipPath>




    <text
   x="8"
   y="32"
   style="font-size:14px;fill:#000000;font-family:Arial"
   id="text482">compiler</text>







    <clipPath
   id="clipPath484">
      <path
   d="M 22,13 L 880,13 L 880,613 L 22,613 L 22,13 z "
   id="path486" />




    </clipPath>




    <line
   style="fill:none;stroke:#000000"
   x1="0"
   y1="26"
   x2="5"
   y2="26"
   id="line488" />




    <line
   style="fill:none;stroke:#000000"
   x1="0"
   y1="20"
   x2="0"
   y2="32"
   id="line490" />




    <line
   style="fill:none;stroke:#000000"
   x1="1"
   y1="20"
   x2="1"
   y2="32"
   id="line492" />




    <text
   x="129"
   y="32"
   style="font-size:14px;font-style:italic;fill:#000000;font-family:Arial"
   id="text494">builder</text>







    <clipPath
   id="clipPath496">
      <path
   d="M 22,13 L 880,13 L 880,613 L 22,613 L 22,13 z "
   id="path498" />




    </clipPath>




    <line
   style="fill:none;stroke:#000000"
   x1="180"
   y1="26"
   x2="185"
   y2="26"
   id="line500" />




    <line
   style="fill:none;stroke:#000000"
   x1="185"
   y1="20"
   x2="185"
   y2="32"
   id="line502" />




    <line
   style="fill:none;stroke:#000000"
   x1="186"
   y1="20"
   x2="186"
   y2="32"
   id="line504" />




  </g>




  <line
   style="fill:none;stroke:#ff0000;stroke-linecap:square;stroke-linejoin:bevel"
   x1="670"
   y1="541"
   x2="876"
   y2="112"
   id="line508" />



<line
   style="fill:none;stroke:#008000;stroke-linecap:square;stroke-linejoin:bevel"
   x1="671"
   y1="443"
   x2="876"
   y2="96"
   id="line510" />



<line
   style="fill:none;stroke:#008000;stroke-linecap:square;stroke-linejoin:bevel"
   x1="671"
   y1="343"
   x2="876"
   y2="80"
   id="line512" />



<line
   style="fill:none;stroke:#008000;stroke-linecap:square;stroke-linejoin:bevel"
   x1="672"
   y1="247"
   x2="876"
   y2="64"
   id="line514" />



<line
   style="fill:none;stroke:#008000;stroke-linecap:square;stroke-linejoin:bevel"
   x1="673"
   y1="154"
   x2="876"
   y2="48"
   id="line516" />



<line
   style="fill:none;stroke:#008000;stroke-linecap:square;stroke-linejoin:bevel"
   x1="349"
   y1="141"
   x2="486"
   y2="59"
   id="line518" />



<line
   style="fill:none;stroke:#008000;stroke-linecap:square;stroke-linejoin:bevel"
   x1="349"
   y1="157"
   x2="487"
   y2="154"
   id="line520" />



<line
   style="fill:none;stroke:#008000;stroke-linecap:square;stroke-linejoin:bevel"
   x1="349"
   y1="173"
   x2="487"
   y2="247"
   id="line522" />



<line
   style="fill:none;stroke:#008000;stroke-linecap:square;stroke-linejoin:bevel"
   x1="349"
   y1="189"
   x2="486"
   y2="343"
   id="line524" />



<line
   style="fill:none;stroke:#008000;stroke-linecap:square;stroke-linejoin:bevel"
   x1="349"
   y1="205"
   x2="491"
   y2="443"
   id="line526" />



<line
   style="fill:none;stroke:#008000;stroke-linecap:square;stroke-linejoin:bevel"
   x1="349"
   y1="221"
   x2="493"
   y2="541"
   id="line528" />



<line
   style="fill:none;stroke:#008000;stroke-linecap:square;stroke-linejoin:bevel"
   x1="672"
   y1="59"
   x2="876"
   y2="32"
   id="line530" />



<line
   style="fill:none;stroke:#008000;stroke-linecap:square;stroke-linejoin:bevel"
   x1="27.241861"
   y1="36.988995"
   x2="77.012054"
   y2="125.02668"
   id="line532" />




<g
   transform="translate(495.826,608.8049)"
   style="stroke-linecap:square;stroke-linejoin:bevel"
   id="g1566">
    <polygon
   style="fill:#c0c0c0;stroke:none"
   points="10,4 174,4 174,72 17,72 10,65 10,4 "
   id="polygon1568" />




    <polygon
   style="fill:#ffffb7;stroke:none"
   points="6,0 170,0 170,68 13,68 6,61 6,0 "
   id="polygon1570" />




    <polygon
   style="fill:none;stroke:#000000"
   points="6,0 170,0 170,68 13,68 6,61 6,0 "
   id="polygon1572" />




    <text
   x="8"
   y="14"
   style="font-size:14px;font-weight:bold;fill:#000000;font-family:Arial"
   id="text1574">environment-compiler</text>







    <clipPath
   id="clipPath1576">
      <path
   d="M 22,13 L 880,13 L 880,613 L 22,613 L 22,13 z "
   id="path1578" />




    </clipPath>




    <text
   x="8"
   y="32"
   style="font-size:14px;fill:#000000;font-family:Arial"
   id="text1580">compiler</text>







    <clipPath
   id="clipPath1582">
      <path
   d="M 22,13 L 880,13 L 880,613 L 22,613 L 22,13 z "
   id="path1584" />




    </clipPath>




    <line
   style="fill:none;stroke:#000000"
   x1="0"
   y1="26"
   x2="5"
   y2="26"
   id="line1586" />




    <line
   style="fill:none;stroke:#000000"
   x1="0"
   y1="20"
   x2="0"
   y2="32"
   id="line1588" />




    <line
   style="fill:none;stroke:#000000"
   x1="1"
   y1="20"
   x2="1"
   y2="32"
   id="line1590" />




    <text
   x="120"
   y="32"
   style="font-size:14px;font-style:italic;fill:#ff0000;font-family:Arial"
   id="text1592">builder</text>







    <clipPath
   id="clipPath1594">
      <path
   d="M 22,13 L 880,13 L 880,613 L 22,613 L 22,13 z "
   id="path1596" />




    </clipPath>




    <line
   style="fill:none;stroke:#ff0000"
   x1="171"
   y1="26"
   x2="176"
   y2="26"
   id="line1598" />




    <line
   style="fill:none;stroke:#ff0000"
   x1="176"
   y1="20"
   x2="176"
   y2="32"
   id="line1600" />




    <line
   style="fill:none;stroke:#ff0000"
   x1="177"
   y1="20"
   x2="177"
   y2="32"
   id="line1602" />




  </g><text
   x="215.89247"
   y="243.19353"
   id="text1608">primitive-compiler6</text>


<line
   style="fill:none;stroke:#808080;stroke-linecap:square;stroke-linejoin:bevel"
   x1="342.9476"
   y1="238.73914"
   x2="347.9476"
   y2="238.73914"
   id="line1610" /><line
   style="fill:none;stroke:#808080;stroke-linecap:square;stroke-linejoin:bevel"
   x1="348.22556"
   y1="232.41231"
   x2="348.22556"
   y2="244.41231"
   id="line1612" /><line
   style="fill:none;stroke:#008000;stroke-linecap:square;stroke-linejoin:bevel"
   x1="348.95178"
   y1="237.03964"
   x2="495.54834"
   y2="633.92859"
   id="line1616" /><text
   x="745.57831"
   y="133.25453"
   id="text1618">environment-builder</text>


<line
   style="fill:none;stroke:#ff0000;stroke-linecap:square;stroke-linejoin:bevel"
   x1="875.91943"
   y1="129.76817"
   x2="880.91943"
   y2="129.76817"
   id="line1620" /><line
   style="fill:none;stroke:#ff0000;stroke-linecap:square;stroke-linejoin:bevel"
   x1="875.81561"
   y1="123.64201"
   x2="875.81561"
   y2="135.642"
   id="line1622" /><line
   style="fill:none;stroke:#ff0000;stroke-linecap:square;stroke-linejoin:bevel"
   x1="887.17224"
   y1="129.76816"
   x2="892.17224"
   y2="129.76816"
   id="line1624" /><line
   style="fill:none;stroke:#ff0000;stroke-linecap:square;stroke-linejoin:bevel"
   x1="892.30957"
   y1="123.59234"
   x2="892.30957"
   y2="135.59235"
   id="line1626" /><line
   style="fill:none;stroke:#ff0000;stroke-linecap:square;stroke-linejoin:bevel"
   x1="893.01288"
   y1="123.59234"
   x2="893.01288"
   y2="135.59235"
   id="line1628" /><line
   style="fill:none;stroke:#ff0000;stroke-linecap:square;stroke-linejoin:bevel"
   x1="673.78143"
   y1="633.53778"
   x2="874.83246"
   y2="129.12294"
   id="line1630" /></svg>