<?xml version="1.0" encoding="UTF-8" standalone="no"?>
<!-- Generated by cwi.SVGGraphics.SVGGraphics java object, copyright CWI, Amsterdam -->
<svg
   xmlns:dc="http://purl.org/dc/elements/1.1/"
   xmlns:cc="http://web.resource.org/cc/"
   xmlns:rdf="http://www.w3.org/1999/02/22-rdf-syntax-ns#"
   xmlns:svg="http://www.w3.org/2000/svg"
   xmlns="http://www.w3.org/2000/svg"
   xmlns:sodipodi="http://inkscape.sourceforge.net/DTD/sodipodi-0.dtd"
   xmlns:inkscape="http://www.inkscape.org/namespaces/inkscape"
   inkscape:export-ydpi="90.000000"
   inkscape:export-xdpi="90.000000"
   inkscape:export-filename="/home/pavel/work/ft/svn/fractalprotocols/trunk/doc/images/adl_factory.png"
   sodipodi:docbase="/home/pavel/work/ft/svn/fractalprotocols/trunk/doc/images"
   sodipodi:docname="adl_factory.svg"
   inkscape:version="0.43"
   sodipodi:version="0.32"
   id="svg1722"
   height="475"
   width="969"
   xml:space="preserve"><metadata
   id="metadata2117">
  <rdf:RDF>
    <cc:Work
   rdf:about="">
      <dc:format>image/svg+xml</dc:format>


      <dc:type
   rdf:resource="http://purl.org/dc/dcmitype/StillImage" />


    </cc:Work>


  </rdf:RDF>


</metadata>


<sodipodi:namedview
   inkscape:current-layer="svg1722"
   inkscape:window-y="30"
   inkscape:window-x="5"
   inkscape:cy="231.49878"
   inkscape:cx="522.27276"
   inkscape:zoom="0.89064591"
   inkscape:window-height="811"
   inkscape:window-width="1109"
   inkscape:pageshadow="2"
   inkscape:pageopacity="0.0"
   borderopacity="1.0"
   bordercolor="#666666"
   pagecolor="#ffffff"
   id="base" />



  <defs
   id="defs1724">
  
    
    
    
    
    
    
    <clipPath
   id="clipPath1910">
      <path
   id="path1912"
   d="M22.0 11.0 L946.0 11.0 L946.0 463.0 L22.0 463.0 L22.0 11.0 Z" />



    </clipPath>



    
    <clipPath
   id="clipPath1916">
      <path
   id="path1918"
   d="M22.0 11.0 L946.0 11.0 L946.0 463.0 L22.0 463.0 L22.0 11.0 Z" />



    </clipPath>



    
    
    
    
    <clipPath
   id="clipPath1928">
      <path
   id="path1930"
   d="M22.0 11.0 L946.0 11.0 L946.0 463.0 L22.0 463.0 L22.0 11.0 Z" />



    </clipPath>



    
    
    
    
    <clipPath
   id="clipPath1940">
      <path
   id="path1942"
   d="M22.0 11.0 L946.0 11.0 L946.0 463.0 L22.0 463.0 L22.0 11.0 Z" />



    </clipPath>



    
    
    
    
    <clipPath
   id="clipPath1952">
      <path
   id="path1954"
   d="M22.0 11.0 L946.0 11.0 L946.0 463.0 L22.0 463.0 L22.0 11.0 Z" />



    </clipPath>



    
    
    
    
    <clipPath
   id="clipPath1964">
      <path
   id="path1966"
   d="M22.0 11.0 L946.0 11.0 L946.0 463.0 L22.0 463.0 L22.0 11.0 Z" />



    </clipPath>



    
    
    
    
    <clipPath
   id="clipPath1976">
      <path
   id="path1978"
   d="M22.0 11.0 L946.0 11.0 L946.0 463.0 L22.0 463.0 L22.0 11.0 Z" />



    </clipPath>



    
    
    
    
    <clipPath
   id="clipPath1988">
      <path
   id="path1990"
   d="M22.0 11.0 L946.0 11.0 L946.0 463.0 L22.0 463.0 L22.0 11.0 Z" />



    </clipPath>



    
    
    
  
    
    
    
    
    
    
    <clipPath
   id="clipPath1820">
      <path
   id="path1822"
   d="M22.0 11.0 L946.0 11.0 L946.0 463.0 L22.0 463.0 L22.0 11.0 Z" />



    </clipPath>



    
    <clipPath
   id="clipPath1826">
      <path
   id="path1828"
   d="M22.0 11.0 L946.0 11.0 L946.0 463.0 L22.0 463.0 L22.0 11.0 Z" />



    </clipPath>



    
    
    
    
    <clipPath
   id="clipPath1838">
      <path
   id="path1840"
   d="M22.0 11.0 L946.0 11.0 L946.0 463.0 L22.0 463.0 L22.0 11.0 Z" />



    </clipPath>



    
    
    
    
    <clipPath
   id="clipPath1850">
      <path
   id="path1852"
   d="M22.0 11.0 L946.0 11.0 L946.0 463.0 L22.0 463.0 L22.0 11.0 Z" />



    </clipPath>



    
    
    
    
    <clipPath
   id="clipPath1862">
      <path
   id="path1864"
   d="M22.0 11.0 L946.0 11.0 L946.0 463.0 L22.0 463.0 L22.0 11.0 Z" />



    </clipPath>



    
    
    
    
    <clipPath
   id="clipPath1874">
      <path
   id="path1876"
   d="M22.0 11.0 L946.0 11.0 L946.0 463.0 L22.0 463.0 L22.0 11.0 Z" />



    </clipPath>



    
    
    
    
    <clipPath
   id="clipPath1886">
      <path
   id="path1888"
   d="M22.0 11.0 L946.0 11.0 L946.0 463.0 L22.0 463.0 L22.0 11.0 Z" />



    </clipPath>



    
    
    
  
    
    
    
    
    
    
    <clipPath
   id="clipPath1742">
      <rect
   id="rect1744"
   height="12.0"
   width="934.0"
   y="4.0"
   x="8.0" />



    </clipPath>



    
    <clipPath
   id="clipPath1748">
      <rect
   id="rect1750"
   height="475.0"
   width="969.0"
   y="0.0"
   x="0.0" />



    </clipPath>



    <clipPath
   id="clipPath1752">
      <rect
   id="rect1754"
   height="12.0"
   width="912.0"
   y="22.0"
   x="20.0" />



    </clipPath>



    
    <clipPath
   id="clipPath1758">
      <rect
   id="rect1760"
   height="475.0"
   width="969.0"
   y="0.0"
   x="0.0" />



    </clipPath>



    
    
    
    
    
    
  
    
    
    
    
    
    
    
    
    
    
    <clipPath
   id="clipPath2112">
      <rect
   id="rect2114"
   height="475.0"
   width="969.0"
   y="0.0"
   x="0.0" />



    </clipPath>



  
    
    
    
    
    
    
    <clipPath
   id="clipPath2012">
      <path
   id="path2014"
   d="M22.0 11.0 L946.0 11.0 L946.0 463.0 L22.0 463.0 L22.0 11.0 Z" />



    </clipPath>



    
    <clipPath
   id="clipPath2018">
      <path
   id="path2020"
   d="M22.0 11.0 L946.0 11.0 L946.0 463.0 L22.0 463.0 L22.0 11.0 Z" />



    </clipPath>



    
    
    
  
    

    

    

    

    <clipPath
   id="clipPath2038">
      <path
   id="path2040"
   d="M22.0 11.0 L946.0 11.0 L946.0 463.0 L22.0 463.0 L22.0 11.0 Z" />



    </clipPath>



    

    <clipPath
   id="clipPath2044">
      <path
   id="path2046"
   d="M22.0 11.0 L946.0 11.0 L946.0 463.0 L22.0 463.0 L22.0 11.0 Z" />



    </clipPath>



    

    

    

    

    <clipPath
   id="clipPath2056">
      <path
   id="path2058"
   d="M22.0 11.0 L946.0 11.0 L946.0 463.0 L22.0 463.0 L22.0 11.0 Z" />



    </clipPath>



    

    

    

    

    <clipPath
   id="clipPath2068">
      <path
   id="path2070"
   d="M22.0 11.0 L946.0 11.0 L946.0 463.0 L22.0 463.0 L22.0 11.0 Z" />



    </clipPath>



    

    

    

    

    <clipPath
   id="clipPath2080">
      <path
   id="path2082"
   d="M22.0 11.0 L946.0 11.0 L946.0 463.0 L22.0 463.0 L22.0 11.0 Z" />



    </clipPath>



    

    

    

  </defs>



  <rect
   id="rect1726"
   height="475.0"
   width="969.0"
   y="0.0"
   x="0.0"
   style="stroke:none; fill:white" />



  <polygon
   transform="translate(9.000000,4.000000)"
   id="polygon1730"
   points="10.0,4.0 947.0,4.0 947.0,469.0 17.0,469.0 10.0,462.0 "
   style="stroke-linejoin:bevel;stroke-linecap:square;fill:#c0c0c0;stroke:none" />


<polygon
   transform="translate(9.000000,4.000000)"
   id="polygon1732"
   points="6.0,0.0 943.0,0.0 943.0,465.0 13.0,465.0 6.0,458.0 "
   style="stroke-linejoin:bevel;stroke-linecap:square;fill:#ffffb7;stroke:none" />


<polygon
   transform="translate(9.000000,4.000000)"
   id="polygon1734"
   points="6.0,0.0 943.0,0.0 943.0,465.0 13.0,465.0 6.0,458.0 "
   style="stroke-linejoin:bevel;stroke-linecap:square;stroke:#ff6633;fill:none" />


<polygon
   transform="translate(9.000000,4.000000)"
   id="polygon1736"
   points="5.0,-1.0 944.0,-1.0 944.0,466.0 13.0,466.0 5.0,458.0 "
   style="stroke-linejoin:bevel;stroke-linecap:square;stroke:#ff6633;fill:none" />


<rect
   id="rect1738"
   height="456.00000"
   width="928.00000"
   y="9.0000000"
   x="20.000000"
   style="fill:#ffffff;stroke:none;stroke-linecap:square;stroke-linejoin:bevel" />


<rect
   id="rect1740"
   height="455.00000"
   width="927.00000"
   y="9.0000000"
   x="20.000000"
   style="fill:none;stroke:#000000;stroke-linecap:square;stroke-linejoin:bevel" />


<text
   id="text1746"
   style="font-size:14.000000;font-weight:bold;fill:#000000;stroke-linecap:square;stroke-linejoin:bevel;font-family:'Arial'"
   y="22"
   x="23">org.objectweb.fractal.fractalprotocols.fractaladl.Factory</text>




<text
   id="text1756"
   style="font-size:14.000000;fill:#000000;stroke-linecap:square;stroke-linejoin:bevel;font-family:'Arial'"
   y="40"
   x="29">factory</text>




<line
   id="line1762"
   y2="34.000000"
   x2="26.000000"
   y1="34.000000"
   x1="20.000000"
   style="fill:none;stroke:#000000;stroke-linecap:square;stroke-linejoin:bevel" />


<line
   id="line1764"
   y2="40.000000"
   x2="26.000000"
   y1="28.000000"
   x1="26.000000"
   style="fill:none;stroke:#000000;stroke-linecap:square;stroke-linejoin:bevel" />


<line
   id="line1766"
   y2="40.000000"
   x2="25.000000"
   y1="28.000000"
   x1="25.000000"
   style="fill:none;stroke:#000000;stroke-linecap:square;stroke-linejoin:bevel" />


<line
   id="line1768"
   y2="34.000000"
   x2="14.000000"
   y1="34.000000"
   x1="9.0000000"
   style="fill:none;stroke:#000000;stroke-linecap:square;stroke-linejoin:bevel" />


<line
   id="line1770"
   y2="40.000000"
   x2="9.0000000"
   y1="28.000000"
   x1="9.0000000"
   style="fill:none;stroke:#000000;stroke-linecap:square;stroke-linejoin:bevel" />


<line
   id="line1772"
   y2="40.000000"
   x2="10.000000"
   y1="28.000000"
   x1="10.000000"
   style="fill:none;stroke:#000000;stroke-linecap:square;stroke-linejoin:bevel" />



  <g
   id="g1774"
   style="stroke-linecap:square; stroke-linejoin:bevel; "
   transform="matrix(1.0,0.0,0.0,1.0,0.0,0.0)">
    <clipPath
   id="clipPath1776">
      <rect
   id="rect1778"
   height="452.0"
   width="924.0"
   y="11.0"
   x="22.0" />



    </clipPath>



  </g>



  <g
   id="g1780"
   style="stroke-linecap:square; stroke-linejoin:bevel; "
   transform="matrix(1.0,0.0,0.0,1.0,306.0,337.0)">
    <polygon
   id="polygon1782"
   points="10.0,4.0 207.0,4.0 207.0,112.0 17.0,112.0 10.0,105.0 "
   style="stroke:none; fill:rgb(192,192,192)" />



    <polygon
   id="polygon1784"
   points="6.0,0.0 203.0,0.0 203.0,108.0 13.0,108.0 6.0,101.0 "
   style="stroke:none; fill:rgb(255,255,183)" />



    <polygon
   id="polygon1786"
   points="6.0,0.0 203.0,0.0 203.0,108.0 13.0,108.0 6.0,101.0 "
   style="fill:none; stroke:black; " />



    <text
   id="text1788"
   style="font-family:'Arial'; font-size:14.0; font-weight:bold; fill:black;"
   y="14.0"
   x="8.0">scheduler</text>





    <clipPath
   id="clipPath1790">
      <path
   id="path1792"
   d="M22.0 11.0 L946.0 11.0 L946.0 463.0 L22.0 463.0 L22.0 11.0 Z" />



    </clipPath>



    <text
   id="text1794"
   style="font-family:'Arial'; font-size:14.0; fill:black;"
   y="32.0"
   x="8.0">scheduler</text>





    <clipPath
   id="clipPath1796">
      <path
   id="path1798"
   d="M22.0 11.0 L946.0 11.0 L946.0 463.0 L22.0 463.0 L22.0 11.0 Z" />



    </clipPath>



    <line
   id="line1800"
   y2="26.0"
   x2="5.0"
   y1="26.0"
   x1="0.0"
   style="fill:none; stroke:black; " />



    <line
   id="line1802"
   y2="32.0"
   x2="0.0"
   y1="20.0"
   x1="0.0"
   style="fill:none; stroke:black; " />



    <line
   id="line1804"
   y2="32.0"
   x2="1.0"
   y1="20.0"
   x1="1.0"
   style="fill:none; stroke:black; " />



  </g>



  <polygon
   transform="translate(678.0000,157.0000)"
   id="polygon1808"
   points="10.000000,4.0000000 249.00000,4.0000000 249.00000,146.00000 17.000000,146.00000 10.000000,139.00000 10.000000,4.0000000 "
   style="fill:#c0c0c0;stroke:none;stroke-linecap:square;stroke-linejoin:bevel" />


<polygon
   transform="matrix(1,0,0,1.064491,678,157)"
   id="polygon1810"
   points="6,0 245,0 245,142 13,142 6,135 6,0 "
   style="fill:#ffffb7;stroke:none;stroke-linecap:square;stroke-linejoin:bevel" />


<polygon
   transform="matrix(1,0,0,1.078271,678,157.0391)"
   id="polygon1812"
   points="6,0 245,0 245,142 13,142 6,135 6,0 "
   style="fill:none;stroke:#000000;stroke-linecap:square;stroke-linejoin:bevel" />


<rect
   id="rect1814"
   height="143.1752"
   width="230"
   y="162"
   x="689"
   style="fill:#ffffff;stroke:none;stroke-linecap:square;stroke-linejoin:bevel" />


<rect
   id="rect1816"
   height="141.07198"
   width="229"
   y="162.04288"
   x="689"
   style="fill:none;stroke:#000000;stroke-linecap:square;stroke-linejoin:bevel" />


<text
   id="text1818"
   style="font-size:14.000000;font-weight:bold;fill:#000000;stroke-linecap:square;stroke-linejoin:bevel;font-family:'Arial'"
   y="177"
   x="692">backend</text>




<text
   id="text1824"
   style="font-size:14.000000;fill:#000000;stroke-linecap:square;stroke-linejoin:bevel;font-family:'Arial'"
   y="195"
   x="692">type-builder</text>




<line
   id="line1830"
   y2="189.00000"
   x2="683.00000"
   y1="189.00000"
   x1="678.00000"
   style="fill:none;stroke:#000000;stroke-linecap:square;stroke-linejoin:bevel" />


<line
   id="line1832"
   y2="195.00000"
   x2="678.00000"
   y1="183.00000"
   x1="678.00000"
   style="fill:none;stroke:#000000;stroke-linecap:square;stroke-linejoin:bevel" />


<line
   id="line1834"
   y2="195.00000"
   x2="679.00000"
   y1="183.00000"
   x1="679.00000"
   style="fill:none;stroke:#000000;stroke-linecap:square;stroke-linejoin:bevel" />


<text
   id="text1836"
   style="font-size:14.000000;fill:#000000;stroke-linecap:square;stroke-linejoin:bevel;font-family:'Arial'"
   y="211"
   x="692">implementation-builder</text>




<line
   id="line1842"
   y2="205.00000"
   x2="683.00000"
   y1="205.00000"
   x1="678.00000"
   style="fill:none;stroke:#000000;stroke-linecap:square;stroke-linejoin:bevel" />


<line
   id="line1844"
   y2="211.00000"
   x2="678.00000"
   y1="199.00000"
   x1="678.00000"
   style="fill:none;stroke:#000000;stroke-linecap:square;stroke-linejoin:bevel" />


<line
   id="line1846"
   y2="211.00000"
   x2="679.00000"
   y1="199.00000"
   x1="679.00000"
   style="fill:none;stroke:#000000;stroke-linecap:square;stroke-linejoin:bevel" />


<text
   id="text1848"
   style="font-size:14.000000;fill:#000000;stroke-linecap:square;stroke-linejoin:bevel;font-family:'Arial'"
   y="227"
   x="692">component-builder</text>




<line
   id="line1854"
   y2="221.00000"
   x2="683.00000"
   y1="221.00000"
   x1="678.00000"
   style="fill:none;stroke:#000000;stroke-linecap:square;stroke-linejoin:bevel" />


<line
   id="line1856"
   y2="227.00000"
   x2="678.00000"
   y1="215.00000"
   x1="678.00000"
   style="fill:none;stroke:#000000;stroke-linecap:square;stroke-linejoin:bevel" />


<line
   id="line1858"
   y2="227.00000"
   x2="679.00000"
   y1="215.00000"
   x1="679.00000"
   style="fill:none;stroke:#000000;stroke-linecap:square;stroke-linejoin:bevel" />


<text
   id="text1860"
   style="font-size:14.000000;fill:#000000;stroke-linecap:square;stroke-linejoin:bevel;font-family:'Arial'"
   y="243"
   x="692">binding-builder</text>




<line
   id="line1866"
   y2="237.00000"
   x2="683.00000"
   y1="237.00000"
   x1="678.00000"
   style="fill:none;stroke:#000000;stroke-linecap:square;stroke-linejoin:bevel" />


<line
   id="line1868"
   y2="243.00000"
   x2="678.00000"
   y1="231.00000"
   x1="678.00000"
   style="fill:none;stroke:#000000;stroke-linecap:square;stroke-linejoin:bevel" />


<line
   id="line1870"
   y2="243.00000"
   x2="679.00000"
   y1="231.00000"
   x1="679.00000"
   style="fill:none;stroke:#000000;stroke-linecap:square;stroke-linejoin:bevel" />


<text
   id="text1872"
   style="font-size:14.000000;fill:#000000;stroke-linecap:square;stroke-linejoin:bevel;font-family:'Arial'"
   y="259"
   x="692">attribute-builder</text>




<line
   id="line1878"
   y2="253.00000"
   x2="683.00000"
   y1="253.00000"
   x1="678.00000"
   style="fill:none;stroke:#000000;stroke-linecap:square;stroke-linejoin:bevel" />


<line
   id="line1880"
   y2="259.00000"
   x2="678.00000"
   y1="247.00000"
   x1="678.00000"
   style="fill:none;stroke:#000000;stroke-linecap:square;stroke-linejoin:bevel" />


<line
   id="line1882"
   y2="259.00000"
   x2="679.00000"
   y1="247.00000"
   x1="679.00000"
   style="fill:none;stroke:#000000;stroke-linecap:square;stroke-linejoin:bevel" />


<text
   id="text1884"
   style="font-size:14.000000;fill:#ff0000;stroke-linecap:square;stroke-linejoin:bevel;font-family:'Arial'"
   y="275"
   x="692">protocol-buider </text>




<line
   id="line1890"
   y2="269.00000"
   x2="683.00000"
   y1="269.00000"
   x1="678.00000"
   style="fill:none;stroke:#ff0000;stroke-linecap:square;stroke-linejoin:bevel" />


<line
   id="line1892"
   y2="275.00000"
   x2="678.00000"
   y1="263.00000"
   x1="678.00000"
   style="fill:none;stroke:#ff0000;stroke-linecap:square;stroke-linejoin:bevel" />


<line
   id="line1894"
   y2="275.00000"
   x2="679.00000"
   y1="263.00000"
   x1="679.00000"
   style="fill:none;stroke:#ff0000;stroke-linecap:square;stroke-linejoin:bevel" />



  <polygon
   transform="translate(304.0000,163.0000)"
   id="polygon1898"
   points="10.0,4.0 283.0,4.0 283.0,150.0 17.0,150.0 10.0,143.0 "
   style="stroke-linejoin:bevel;stroke-linecap:square;fill:#c0c0c0;stroke:none" />


<polygon
   transform="matrix(1,0,0,1.069693,304,163)"
   id="polygon1900"
   points="6,0 279,0 279,146 13,146 6,139 6,0 "
   style="fill:#ffffb7;stroke:none;stroke-linecap:square;stroke-linejoin:bevel" />


<polygon
   transform="matrix(1,0,0,1.062274,304,163.0328)"
   id="polygon1902"
   points="6,0 279,0 279,146 13,146 6,139 6,0 "
   style="fill:none;stroke:#000000;stroke-linecap:square;stroke-linejoin:bevel" />


<rect
   id="rect1904"
   height="142.0876"
   width="264"
   y="168"
   x="315"
   style="fill:#ffffff;stroke:none;stroke-linecap:square;stroke-linejoin:bevel" />


<rect
   id="rect1906"
   height="142.04239"
   width="263"
   y="168.03136"
   x="315"
   style="fill:none;stroke:#000000;stroke-linecap:square;stroke-linejoin:bevel" />


<text
   id="text1908"
   style="font-size:14.000000;font-weight:bold;fill:#000000;stroke-linecap:square;stroke-linejoin:bevel;font-family:'Arial'"
   y="181"
   x="318">compiler</text>




<text
   id="text1914"
   style="font-size:14.000000;fill:#000000;stroke-linecap:square;stroke-linejoin:bevel;font-family:'Arial'"
   y="199"
   x="318">compiler</text>




<line
   id="line1920"
   y2="193.00000"
   x2="309.00000"
   y1="193.00000"
   x1="304.00000"
   style="fill:none;stroke:#000000;stroke-linecap:square;stroke-linejoin:bevel" />


<line
   id="line1922"
   y2="199.00000"
   x2="304.00000"
   y1="187.00000"
   x1="304.00000"
   style="fill:none;stroke:#000000;stroke-linecap:square;stroke-linejoin:bevel" />


<line
   id="line1924"
   y2="199.00000"
   x2="305.00000"
   y1="187.00000"
   x1="305.00000"
   style="fill:none;stroke:#000000;stroke-linecap:square;stroke-linejoin:bevel" />


<text
   id="text1926"
   style="font-size:14.000000;font-style:italic;fill:#000000;stroke-linecap:square;stroke-linejoin:bevel;font-family:'Arial'"
   y="193"
   x="499.26172">type-builder</text>




<line
   id="line1932"
   y2="189.00000"
   x2="589.00000"
   y1="189.00000"
   x1="584.00000"
   style="fill:none;stroke:#000000;stroke-linecap:square;stroke-linejoin:bevel" />


<line
   id="line1934"
   y2="195.00000"
   x2="589.00000"
   y1="183.00000"
   x1="589.00000"
   style="fill:none;stroke:#000000;stroke-linecap:square;stroke-linejoin:bevel" />


<line
   id="line1936"
   y2="195.00000"
   x2="590.00000"
   y1="183.00000"
   x1="590.00000"
   style="fill:none;stroke:#000000;stroke-linecap:square;stroke-linejoin:bevel" />


<text
   id="text1938"
   style="font-size:14.000000;font-style:italic;fill:#000000;stroke-linecap:square;stroke-linejoin:bevel;font-family:'Arial';text-anchor:end"
   y="209"
   x="572.48828">implementation-builder</text>




<line
   id="line1944"
   y2="205.00000"
   x2="589.00000"
   y1="205.00000"
   x1="584.00000"
   style="fill:none;stroke:#000000;stroke-linecap:square;stroke-linejoin:bevel" />


<line
   id="line1946"
   y2="211.00000"
   x2="589.00000"
   y1="199.00000"
   x1="589.00000"
   style="fill:none;stroke:#000000;stroke-linecap:square;stroke-linejoin:bevel" />


<line
   id="line1948"
   y2="211.00000"
   x2="590.00000"
   y1="199.00000"
   x1="590.00000"
   style="fill:none;stroke:#000000;stroke-linecap:square;stroke-linejoin:bevel" />


<text
   id="text1950"
   style="font-size:14.000000;font-style:italic;fill:#000000;stroke-linecap:square;stroke-linejoin:bevel;font-family:'Arial';text-anchor:end"
   y="225"
   x="572.48828">component-builder</text>




<line
   id="line1956"
   y2="221.00000"
   x2="589.00000"
   y1="221.00000"
   x1="584.00000"
   style="fill:none;stroke:#000000;stroke-linecap:square;stroke-linejoin:bevel" />


<line
   id="line1958"
   y2="227.00000"
   x2="589.00000"
   y1="215.00000"
   x1="589.00000"
   style="fill:none;stroke:#000000;stroke-linecap:square;stroke-linejoin:bevel" />


<line
   id="line1960"
   y2="227.00000"
   x2="590.00000"
   y1="215.00000"
   x1="590.00000"
   style="fill:none;stroke:#000000;stroke-linecap:square;stroke-linejoin:bevel" />


<text
   id="text1962"
   style="font-size:14.000000;font-style:italic;fill:#000000;stroke-linecap:square;stroke-linejoin:bevel;font-family:'Arial'"
   y="241"
   x="480.53125">binding-builder</text>




<line
   id="line1968"
   y2="237.00000"
   x2="589.00000"
   y1="237.00000"
   x1="584.00000"
   style="fill:none;stroke:#000000;stroke-linecap:square;stroke-linejoin:bevel" />


<line
   id="line1970"
   y2="243.00000"
   x2="589.00000"
   y1="231.00000"
   x1="589.00000"
   style="fill:none;stroke:#000000;stroke-linecap:square;stroke-linejoin:bevel" />


<line
   id="line1972"
   y2="243.00000"
   x2="590.00000"
   y1="231.00000"
   x1="590.00000"
   style="fill:none;stroke:#000000;stroke-linecap:square;stroke-linejoin:bevel" />


<text
   id="text1974"
   style="font-size:14.000000;font-style:italic;fill:#000000;stroke-linecap:square;stroke-linejoin:bevel;font-family:'Arial'"
   y="257"
   x="475.11719">attribute-builder</text>




<line
   id="line1980"
   y2="253.00000"
   x2="589.00000"
   y1="253.00000"
   x1="584.00000"
   style="fill:none;stroke:#000000;stroke-linecap:square;stroke-linejoin:bevel" />


<line
   id="line1982"
   y2="259.00000"
   x2="589.00000"
   y1="247.00000"
   x1="589.00000"
   style="fill:none;stroke:#000000;stroke-linecap:square;stroke-linejoin:bevel" />


<line
   id="line1984"
   y2="259.00000"
   x2="590.00000"
   y1="247.00000"
   x1="590.00000"
   style="fill:none;stroke:#000000;stroke-linecap:square;stroke-linejoin:bevel" />


<text
   id="text1986"
   style="font-size:14.000000;font-style:italic;fill:#ff0000;stroke-linecap:square;stroke-linejoin:bevel;font-family:'Arial'"
   y="273"
   x="475.88281">protocol-builder</text>




<line
   id="line1992"
   y2="269.00000"
   x2="589.00000"
   y1="269.00000"
   x1="584.00000"
   style="fill:none;stroke:#ff0000;stroke-linecap:square;stroke-linejoin:bevel" />


<line
   id="line1994"
   y2="275.00000"
   x2="589.00000"
   y1="263.00000"
   x1="589.00000"
   style="fill:none;stroke:#ff0000;stroke-linecap:square;stroke-linejoin:bevel" />


<line
   id="line1996"
   y2="275.00000"
   x2="590.00000"
   y1="263.00000"
   x1="590.00000"
   style="fill:none;stroke:#ff0000;stroke-linecap:square;stroke-linejoin:bevel" />



  <polygon
   transform="translate(304.0000,37.00000)"
   id="polygon2000"
   points="10.0,4.0 168.0,4.0 168.0,106.0 17.0,106.0 10.0,99.0 "
   style="stroke-linejoin:bevel;stroke-linecap:square;fill:#c0c0c0;stroke:none" />


<polygon
   transform="translate(304.0000,37.00000)"
   id="polygon2002"
   points="6.0,0.0 164.0,0.0 164.0,102.0 13.0,102.0 6.0,95.0 "
   style="stroke-linejoin:bevel;stroke-linecap:square;fill:#ffffb7;stroke:none" />


<polygon
   transform="translate(304.0000,37.00000)"
   id="polygon2004"
   points="6.0,0.0 164.0,0.0 164.0,102.0 13.0,102.0 6.0,95.0 "
   style="stroke-linejoin:bevel;stroke-linecap:square;stroke:#000000;fill:none" />


<rect
   id="rect2006"
   height="93.000000"
   width="149.00000"
   y="42.000000"
   x="315.00000"
   style="fill:#ffffff;stroke:none;stroke-linecap:square;stroke-linejoin:bevel" />


<rect
   id="rect2008"
   height="92.000000"
   width="148.00000"
   y="42.000000"
   x="315.00000"
   style="fill:none;stroke:#000000;stroke-linecap:square;stroke-linejoin:bevel" />


<text
   id="text2010"
   style="font-size:14.000000;font-weight:bold;fill:#000000;stroke-linecap:square;stroke-linejoin:bevel;font-family:'Arial'"
   y="55"
   x="318">loader</text>




<text
   id="text2016"
   style="font-size:14.000000;fill:#000000;stroke-linecap:square;stroke-linejoin:bevel;font-family:'Arial'"
   y="73"
   x="318">loader</text>




<line
   id="line2022"
   y2="67.000000"
   x2="309.00000"
   y1="67.000000"
   x1="304.00000"
   style="fill:none;stroke:#000000;stroke-linecap:square;stroke-linejoin:bevel" />


<line
   id="line2024"
   y2="73.000000"
   x2="304.00000"
   y1="61.000000"
   x1="304.00000"
   style="fill:none;stroke:#000000;stroke-linecap:square;stroke-linejoin:bevel" />


<line
   id="line2026"
   y2="73.000000"
   x2="305.00000"
   y1="61.000000"
   x1="305.00000"
   style="fill:none;stroke:#000000;stroke-linecap:square;stroke-linejoin:bevel" />



  <polygon
   id="polygon2030"
   points="9.0,4.0 189.0,4.0 189.0,80.0 16.0,80.0 9.0,73.0 "
   style="stroke-linejoin:bevel;stroke-linecap:square;fill:#c0c0c0;stroke:none"
   transform="translate(54.00000,89.00000)" />

<polygon
   id="polygon2032"
   points="5.0,0.0 185.0,0.0 185.0,76.0 12.0,76.0 5.0,69.0 "
   style="stroke-linejoin:bevel;stroke-linecap:square;fill:#ffffb7;stroke:none"
   transform="translate(54.00000,89.00000)" />

<polygon
   id="polygon2034"
   points="5.0,0.0 185.0,0.0 185.0,76.0 12.0,76.0 5.0,69.0 "
   style="stroke-linejoin:bevel;stroke-linecap:square;stroke:#000000;fill:none"
   transform="translate(54.00000,89.00000)" />

<text
   id="text2036"
   style="font-size:12.000000;font-weight:bold;fill:#000000;stroke-linecap:square;stroke-linejoin:bevel;font-family:'Arial'"
   y="101"
   x="61">factory</text>



<text
   id="text2042"
   style="font-size:12.000000;fill:#000000;stroke-linecap:square;stroke-linejoin:bevel;font-family:'Arial'"
   y="117"
   x="61">factory</text>



<line
   id="line2048"
   y2="112.00000"
   x2="58.000000"
   y1="112.00000"
   x1="54.000000"
   style="fill:none;stroke:#000000;stroke-linecap:square;stroke-linejoin:bevel" />

<line
   id="line2050"
   y2="117.00000"
   x2="54.000000"
   y1="107.00000"
   x1="54.000000"
   style="fill:none;stroke:#000000;stroke-linecap:square;stroke-linejoin:bevel" />

<line
   id="line2052"
   y2="117.00000"
   x2="55.000000"
   y1="107.00000"
   x1="55.000000"
   style="fill:none;stroke:#000000;stroke-linecap:square;stroke-linejoin:bevel" />

<text
   id="text2054"
   style="font-size:12.000000;font-style:italic;fill:#000000;stroke-linecap:square;stroke-linejoin:bevel;font-family:'Arial'"
   y="117"
   x="202">loader</text>



<line
   id="line2060"
   y2="112.00000"
   x2="244.00000"
   y1="112.00000"
   x1="240.00000"
   style="fill:none;stroke:#000000;stroke-linecap:square;stroke-linejoin:bevel" />

<line
   id="line2062"
   y2="117.00000"
   x2="244.00000"
   y1="107.00000"
   x1="244.00000"
   style="fill:none;stroke:#000000;stroke-linecap:square;stroke-linejoin:bevel" />

<line
   id="line2064"
   y2="117.00000"
   x2="245.00000"
   y1="107.00000"
   x1="245.00000"
   style="fill:none;stroke:#000000;stroke-linecap:square;stroke-linejoin:bevel" />

<text
   id="text2066"
   style="font-size:12.000000;font-style:italic;fill:#000000;stroke-linecap:square;stroke-linejoin:bevel;font-family:'Arial'"
   y="131"
   x="190">compiler</text>



<line
   id="line2072"
   y2="126.00000"
   x2="244.00000"
   y1="126.00000"
   x1="240.00000"
   style="fill:none;stroke:#000000;stroke-linecap:square;stroke-linejoin:bevel" />

<line
   id="line2074"
   y2="131.00000"
   x2="244.00000"
   y1="121.00000"
   x1="244.00000"
   style="fill:none;stroke:#000000;stroke-linecap:square;stroke-linejoin:bevel" />

<line
   id="line2076"
   y2="131.00000"
   x2="245.00000"
   y1="121.00000"
   x1="245.00000"
   style="fill:none;stroke:#000000;stroke-linecap:square;stroke-linejoin:bevel" />

<text
   id="text2078"
   style="font-size:12.000000;font-style:italic;fill:#000000;stroke-linecap:square;stroke-linejoin:bevel;font-family:'Arial'"
   y="145"
   x="184">scheduler</text>



<line
   id="line2084"
   y2="140.00000"
   x2="244.00000"
   y1="140.00000"
   x1="240.00000"
   style="fill:none;stroke:#000000;stroke-linecap:square;stroke-linejoin:bevel" />

<line
   id="line2086"
   y2="145.00000"
   x2="244.00000"
   y1="135.00000"
   x1="244.00000"
   style="fill:none;stroke:#000000;stroke-linecap:square;stroke-linejoin:bevel" />

<line
   id="line2088"
   y2="145.00000"
   x2="245.00000"
   y1="135.00000"
   x1="245.00000"
   style="fill:none;stroke:#000000;stroke-linecap:square;stroke-linejoin:bevel" />



  <line
   id="line2092"
   y2="189.00000"
   x2="678.00000"
   y1="189.00000"
   x1="590.00000"
   style="fill:none;stroke:#000800;stroke-linecap:square;stroke-linejoin:bevel" />


<line
   id="line2094"
   y2="205.00000"
   x2="678.00000"
   y1="205.00000"
   x1="590.00000"
   style="fill:none;stroke:#008000;stroke-linecap:square;stroke-linejoin:bevel" />


<line
   id="line2096"
   y2="221.00000"
   x2="678.00000"
   y1="221.00000"
   x1="590.00000"
   style="fill:none;stroke:#008000;stroke-linecap:square;stroke-linejoin:bevel" />


<line
   id="line2098"
   y2="237.00000"
   x2="678.00000"
   y1="237.00000"
   x1="590.00000"
   style="fill:none;stroke:#008000;stroke-linecap:square;stroke-linejoin:bevel" />


<line
   id="line2100"
   y2="253.00000"
   x2="678.00000"
   y1="253.00000"
   x1="590.00000"
   style="fill:none;stroke:#008000;stroke-linecap:square;stroke-linejoin:bevel" />


<line
   id="line2102"
   y2="269.00000"
   x2="678.00000"
   y1="269.00000"
   x1="590.00000"
   style="fill:none;stroke:#ff0000;stroke-linecap:square;stroke-linejoin:bevel" />


<line
   id="line2104"
   y2="65.849205"
   x2="303.28650"
   y1="112.02878"
   x1="244.99400"
   style="fill:none;stroke:#008000;stroke-linecap:square;stroke-linejoin:bevel" />


<line
   id="line2106"
   y2="192.53349"
   x2="303.24323"
   y1="126.02782"
   x1="244.99364"
   style="fill:none;stroke:#008000;stroke-linecap:square;stroke-linejoin:bevel" />


<line
   id="line2108"
   y2="363.00000"
   x2="306.00000"
   y1="140.00000"
   x1="245.00000"
   style="fill:none;stroke:#008000;stroke-linecap:square;stroke-linejoin:bevel" />


<line
   id="line2110"
   y2="112.02601"
   x2="54.012405"
   y1="34.290966"
   x1="26.707090"
   style="fill:none;stroke:#008000;stroke-linecap:square;stroke-linejoin:bevel" />



<text
   id="text1492"
   y="291.08688"
   x="692.28979">environment-buider </text>
<text
   id="text1494"
   y="290.06934"
   x="450.49103">environment-builder</text>
<line
   style="fill:none;stroke:#ff0000;stroke-linecap:square;stroke-linejoin:bevel"
   x1="583.99097"
   y1="285.28033"
   x2="682.95654"
   y2="285.28033"
   id="line1498" /><line
   id="line1500"
   y2="291.39041"
   x2="589.1792"
   y1="279.39041"
   x1="589.1792"
   style="fill:none;stroke:#ff0000;stroke-linecap:square;stroke-linejoin:bevel" /><line
   id="line1502"
   y2="291.39041"
   x2="590.16156"
   y1="279.39041"
   x1="590.16156"
   style="fill:none;stroke:#ff0000;stroke-linecap:square;stroke-linejoin:bevel" /><line
   id="line1504"
   y2="291.10971"
   x2="678.01917"
   y1="279.10971"
   x1="678.01917"
   style="fill:none;stroke:#ff0000;stroke-linecap:square;stroke-linejoin:bevel" /><line
   id="line1506"
   y2="291.10971"
   x2="679.00159"
   y1="279.10971"
   x1="679.00159"
   style="fill:none;stroke:#ff0000;stroke-linecap:square;stroke-linejoin:bevel" /></svg>